<?xml version="1.0" encoding="UTF-8" standalone="no"?>
<!-- Created with Inkscape (http://www.inkscape.org/) -->

<svg
   xmlns:dc="http://purl.org/dc/elements/1.1/"
   xmlns:cc="http://creativecommons.org/ns#"
   xmlns:rdf="http://www.w3.org/1999/02/22-rdf-syntax-ns#"
   xmlns:svg="http://www.w3.org/2000/svg"
   xmlns="http://www.w3.org/2000/svg"
   xmlns:xlink="http://www.w3.org/1999/xlink"
   xmlns:sodipodi="http://sodipodi.sourceforge.net/DTD/sodipodi-0.dtd"
   xmlns:inkscape="http://www.inkscape.org/namespaces/inkscape"
   width="512.40002"
   height="512"
   id="svg3336"
   version="1.1"
   inkscape:version="0.91+devel r"
   sodipodi:docname="weather-severe-alert.svg"
   inkscape:export-filename="app_shape02.png"
   inkscape:export-xdpi="180"
   inkscape:export-ydpi="180"
   style="enable-background:new"
   viewBox="0 0 512.40002 512">
  <defs
     id="defs3338">
    <filter
       style="color-interpolation-filters:sRGB"
       inkscape:label="Inner Shadow"
       id="filter4245">
      <feFlood
         flood-opacity="0.40000000000000002"
         flood-color="rgb(0,0,0)"
         result="flood"
         id="feFlood4247" />
      <feComposite
         in="flood"
         in2="SourceGraphic"
         operator="out"
         result="composite1"
         id="feComposite4249" />
      <feGaussianBlur
         in="composite1"
         stdDeviation="6"
         result="blur"
         id="feGaussianBlur4251" />
      <feOffset
         dx="0"
         dy="2"
         result="offset"
         id="feOffset4253" />
      <feComposite
         in="offset"
         in2="SourceGraphic"
         operator="atop"
         result="composite2"
         id="feComposite4255" />
    </filter>
    <filter
       style="color-interpolation-filters:sRGB"
       inkscape:label="Drop Shadow"
       id="filter4711">
      <feFlood
         flood-opacity="0.501961"
         flood-color="rgb(0,0,0)"
         result="flood"
         id="feFlood4713" />
      <feComposite
         in="flood"
         in2="SourceGraphic"
         operator="in"
         result="composite1"
         id="feComposite4715" />
      <feGaussianBlur
         in="composite1"
         stdDeviation="6"
         result="blur"
         id="feGaussianBlur4717" />
      <feOffset
         dx="0"
         dy="4"
         result="offset"
         id="feOffset4719" />
      <feComposite
         in="SourceGraphic"
         in2="offset"
         operator="over"
         result="composite2"
         id="feComposite4721" />
    </filter>
    <filter
       style="color-interpolation-filters:sRGB"
       inkscape:label="Colorize"
       id="filter4202">
      <feComposite
         k4="0"
         k3="0"
         in2="SourceGraphic"
         operator="arithmetic"
         k1="0"
         k2="1"
         result="composite1"
         id="feComposite4204" />
      <feColorMatrix
         in="composite1"
         values="0"
         type="saturate"
         result="colormatrix1"
         id="feColorMatrix4206" />
      <feFlood
         flood-opacity="1"
         flood-color="rgb(21,86,141)"
         result="flood1"
         id="feFlood4208" />
      <feBlend
         in="flood1"
         in2="colormatrix1"
         mode="multiply"
         result="blend1"
         id="feBlend4210" />
      <feBlend
         in2="blend1"
         mode="screen"
         result="blend2"
         id="feBlend4212" />
      <feColorMatrix
         in="blend2"
         values="1"
         type="saturate"
         result="colormatrix2"
         id="feColorMatrix4214" />
      <feComposite
         in="colormatrix2"
         in2="SourceGraphic"
         operator="in"
         result="composite2"
         id="feComposite4216" />
    </filter>
    <filter
       style="color-interpolation-filters:sRGB"
       inkscape:label="Colorize"
       id="filter4154">
      <feComposite
         in2="SourceGraphic"
         operator="arithmetic"
         k1="0"
         k2="1"
         result="composite1"
         id="feComposite4156"
         k3="0"
         k4="0" />
      <feColorMatrix
         in="composite1"
         values="0"
         type="saturate"
         result="colormatrix1"
         id="feColorMatrix4158" />
      <feFlood
         flood-opacity="1"
         flood-color="rgb(67,115,183)"
         result="flood1"
         id="feFlood4160" />
      <feBlend
         in="flood1"
         in2="colormatrix1"
         mode="multiply"
         result="blend1"
         id="feBlend4162" />
      <feBlend
         in2="blend1"
         mode="screen"
         result="blend2"
         id="feBlend4164" />
      <feColorMatrix
         in="blend2"
         values="1"
         type="saturate"
         result="colormatrix2"
         id="feColorMatrix4166" />
      <feComposite
         in="colormatrix2"
         in2="SourceGraphic"
         operator="in"
         result="composite2"
         id="feComposite4168" />
    </filter>
    <linearGradient
       inkscape:collect="always"
       id="linearGradient4243">
      <stop
         style="stop-color:#ffffff;stop-opacity:1;"
         offset="0"
         id="stop4245" />
      <stop
         style="stop-color:#ffffff;stop-opacity:0;"
         offset="1"
         id="stop4247" />
    </linearGradient>
    <clipPath
       clipPathUnits="userSpaceOnUse"
       id="clipPath4241">
      <path
         sodipodi:nodetypes="sssssssss"
         inkscape:connector-curvature="0"
         id="path4243"
         d="m 166.05406,17.99997 h 179.89189 c 145.29729,0 166.05406,20.73726 166.05406,165.89904 v 144.20253 c 0,145.16118 -20.75677,165.89848 -166.05406,165.89848 H 166.05406 C 20.756757,494.00002 0,473.26272 0,328.10154 V 183.89901 C 0,38.73723 20.756757,17.99997 166.05406,17.99997 Z"
         style="display:inline;fill:#0000ff;fill-opacity:0.08118083;stroke:#0000ff" />
    </clipPath>
    <clipPath
       clipPathUnits="userSpaceOnUse"
       id="clipPath4510">
      <path
         style="display:inline;fill:#0000ff;fill-opacity:0.08118083;stroke:#0000ff"
         d="m 463.30663,-109.56117 h 179.89189 c 145.29729,0 166.05406,20.73726 166.05406,165.89904 V 200.5404 c 0,145.16118 -20.75677,165.89848 -166.05406,165.89848 H 463.30663 c -145.2973,0 -166.05406,-20.7373 -166.05406,-165.89848 V 56.33787 c 0,-145.16178 20.75676,-165.89904 166.05406,-165.89904 z"
         id="path4512"
         inkscape:connector-curvature="0"
         sodipodi:nodetypes="sssssssss" />
    </clipPath>
    <clipPath
       clipPathUnits="userSpaceOnUse"
       id="clipPath4707">
      <path
         sodipodi:nodetypes="sssssssss"
         inkscape:connector-curvature="0"
         id="path4709"
         d="m 166.05406,17.99997 h 179.89189 c 145.29729,0 166.05406,20.73726 166.05406,165.89904 v 144.20253 c 0,145.16118 -20.75677,165.89848 -166.05406,165.89848 H 166.05406 C 20.75676,494.00002 0,473.26272 0,328.10154 V 183.89901 C 0,38.73723 20.75676,17.99997 166.05406,17.99997 Z"
         style="display:inline;fill:#ff00ff;fill-opacity:0.50479234;stroke:none" />
    </clipPath>
    <clipPath
       clipPathUnits="userSpaceOnUse"
       id="clipPath4170">
      <path
         style="display:inline;fill:#ffffff;fill-opacity:1;stroke:none"
         d="m 166.05406,17.99997 h 179.89189 c 145.29729,0 166.05406,20.73726 166.05406,165.89904 v 144.20253 c 0,145.16118 -20.75677,165.89848 -166.05406,165.89848 H 166.05406 C 20.75676,494.00002 0,473.26272 0,328.10154 V 183.89901 C 0,38.73723 20.75676,17.99997 166.05406,17.99997 Z"
         id="path4172"
         inkscape:connector-curvature="0"
         sodipodi:nodetypes="sssssssss" />
    </clipPath>
    <linearGradient
       inkscape:collect="always"
       xlink:href="#linearGradient7537"
       id="linearGradient3223"
       gradientUnits="userSpaceOnUse"
       gradientTransform="matrix(5.3329426,0,0,-5.4179322,0.01904181,5682.273)"
       x1="44.236801"
       y1="1046.2661"
       x2="44.236801"
       y2="960.21375" />
    <linearGradient
       id="linearGradient7537">
      <stop
         style="stop-color:#247eca;stop-opacity:0.99607843"
         offset="0"
         id="stop7539" />
      <stop
         style="stop-color:#a1d4e2;stop-opacity:0.99607843"
         offset="1"
         id="stop7541" />
    </linearGradient>
    <clipPath
       clipPathUnits="userSpaceOnUse"
       id="clipPath4967">
      <path
         style="color:#000000;display:inline;overflow:visible;visibility:visible;opacity:0.4;fill:#ff00ff;fill-opacity:1;fill-rule:nonzero;stroke:none;stroke-width:1;marker:none;enable-background:accumulate"
         d="M 119.86447,193.96008 236.17789,151.15047 339.16724,166.36466 392.09848,328.03894 392.283,494 H 119.86447 Z"
         id="path4969"
         inkscape:connector-curvature="0"
         sodipodi:nodetypes="ccccccc" />
    </clipPath>
    <clipPath
       clipPathUnits="userSpaceOnUse"
       id="clipPath4126">
      <path
         style="color:#000000;display:inline;overflow:visible;visibility:visible;opacity:0.57099998;fill:#ff00ff;fill-opacity:1;fill-rule:nonzero;stroke:none;stroke-width:1;marker:none;enable-background:accumulate"
         d="m 160.28233,309.99918 122.94966,60 v 124.0008 H 160.28233 Z"
         id="path4128"
         inkscape:connector-curvature="0"
         sodipodi:nodetypes="ccccc" />
    </clipPath>
    <clipPath
       clipPathUnits="userSpaceOnUse"
       id="clipPath4327">
      <path
         sodipodi:nodetypes="cccccc"
         inkscape:connector-curvature="0"
         id="path4329"
         d="m 620,120 h 272 v 204 l -68,68 H 620 Z"
         style="color:#000000;display:inline;overflow:visible;visibility:visible;opacity:0.43800001;fill:#ff00ff;fill-opacity:1;fill-rule:nonzero;stroke:none;stroke-width:10;marker:none;enable-background:accumulate" />
    </clipPath>
    <clipPath
       clipPathUnits="userSpaceOnUse"
       id="clipPath4175">
      <rect
         style="color:#000000;display:inline;overflow:visible;visibility:visible;opacity:0.4;fill:#ff00ff;fill-opacity:1;fill-rule:nonzero;stroke:none;stroke-width:10;marker:none;enable-background:accumulate"
         id="rect4177"
         width="272"
         height="224"
         x="120"
         y="270" />
    </clipPath>
    <linearGradient
       inkscape:collect="always"
       xlink:href="#linearGradient4181"
       id="linearGradient4465"
       gradientUnits="userSpaceOnUse"
       x1="176"
       y1="240"
       x2="176"
       y2="136"
       gradientTransform="translate(0,-376)" />
    <linearGradient
       id="linearGradient4181"
       inkscape:collect="always">
      <stop
         id="stop4311"
         offset="0"
         style="stop-color:#c7c8ca;stop-opacity:1" />
      <stop
         id="stop4313"
         offset="1"
         style="stop-color:#aaadb2;stop-opacity:1" />
    </linearGradient>
    <linearGradient
       inkscape:collect="always"
       xlink:href="#linearGradient4277"
       id="linearGradient4283"
       x1="176"
       y1="136"
       x2="176"
       y2="237.9375"
       gradientUnits="userSpaceOnUse" />
    <linearGradient
       inkscape:collect="always"
       id="linearGradient4277">
      <stop
         style="stop-color:#ffffff;stop-opacity:1;"
         offset="0"
         id="stop4279" />
      <stop
         style="stop-color:#ffffff;stop-opacity:0;"
         offset="1"
         id="stop4281" />
    </linearGradient>
    <linearGradient
       inkscape:collect="always"
       xlink:href="#linearGradient4181"
       id="linearGradient4189"
       gradientUnits="userSpaceOnUse"
       x1="176"
       y1="240"
       x2="176"
       y2="136"
       gradientTransform="translate(0,-376)" />
    <linearGradient
       inkscape:collect="always"
       xlink:href="#linearGradient4277"
       id="linearGradient4197"
       x1="176"
       y1="136"
       x2="176"
       y2="237.9375"
       gradientUnits="userSpaceOnUse" />
    <linearGradient
       inkscape:collect="always"
       xlink:href="#linearGradient4181"
       id="linearGradient4209"
       gradientUnits="userSpaceOnUse"
       x1="176"
       y1="240"
       x2="176"
       y2="136"
       gradientTransform="translate(0,-376)" />
    <linearGradient
       inkscape:collect="always"
       xlink:href="#linearGradient4277"
       id="linearGradient4217"
       x1="176"
       y1="136"
       x2="176"
       y2="237.9375"
       gradientUnits="userSpaceOnUse" />
    <clipPath
       clipPathUnits="userSpaceOnUse"
       id="clipPath4371">
      <path
         style="color:#000000;display:inline;overflow:visible;visibility:visible;fill:#ff0000;fill-opacity:0.50479234;fill-rule:nonzero;stroke:none;stroke-width:40;marker:none;enable-background:accumulate"
         d="m 104,232 v 48 h 136 v -48 z m 168,0 v 48 H 408 V 232 Z M 104,368 V 480 H 240 V 368 Z m 168,0 V 480 H 408 V 368 Z"
         id="path4373"
         inkscape:connector-curvature="0" />
    </clipPath>
    <linearGradient
       inkscape:collect="always"
       xlink:href="#linearGradient4181-5"
       id="linearGradient4465-6"
       gradientUnits="userSpaceOnUse"
       x1="176"
       y1="240"
       x2="176"
       y2="136"
       gradientTransform="translate(0,-376)" />
    <linearGradient
       id="linearGradient4181-5"
       inkscape:collect="always">
      <stop
         id="stop4311-7"
         offset="0"
         style="stop-color:#888888;stop-opacity:1" />
      <stop
         id="stop4313-3"
         offset="1"
         style="stop-color:#646464;stop-opacity:1" />
    </linearGradient>
    <linearGradient
       inkscape:collect="always"
       xlink:href="#linearGradient4181-5"
       id="linearGradient4167"
       gradientUnits="userSpaceOnUse"
       x1="176"
       y1="240"
       x2="176"
       y2="136"
       gradientTransform="translate(0,-376)" />
    <linearGradient
       inkscape:collect="always"
       xlink:href="#linearGradient4181-5"
       id="linearGradient4179"
       gradientUnits="userSpaceOnUse"
       x1="176"
       y1="240"
       x2="176"
       y2="136"
       gradientTransform="translate(0,-376)" />
    <clipPath
       clipPathUnits="userSpaceOnUse"
       id="clipPath4371-1">
      <path
         style="color:#000000;display:inline;overflow:visible;visibility:visible;fill:#ff0000;fill-opacity:0.50479234;fill-rule:nonzero;stroke:none;stroke-width:40;marker:none;enable-background:accumulate"
         d="m 104,232 v 48 h 136 v -48 z m 168,0 v 48 H 408 V 232 Z M 104,368 V 480 H 240 V 368 Z m 168,0 V 480 H 408 V 368 Z"
         id="path4373-0"
         inkscape:connector-curvature="0" />
    </clipPath>
    <linearGradient
       inkscape:collect="always"
       xlink:href="#linearGradient4390"
       id="linearGradient5805"
       gradientUnits="userSpaceOnUse"
       x1="112"
       y1="280"
       x2="112"
       y2="232" />
    <linearGradient
       inkscape:collect="always"
       id="linearGradient4390">
      <stop
         style="stop-color:#b4b4b4;stop-opacity:0.99607843"
         offset="0"
         id="stop4392" />
      <stop
         id="stop4398"
         offset="0.16579545"
         style="stop-color:#d0d0d0;stop-opacity:0.99607843" />
      <stop
         style="stop-color:#e3e3e3;stop-opacity:0.99607843"
         offset="0.82897723"
         id="stop4400" />
      <stop
         style="stop-color:#ffffff;stop-opacity:0.99607843"
         offset="1"
         id="stop4394" />
    </linearGradient>
    <linearGradient
       inkscape:collect="always"
       xlink:href="#linearGradient4475"
       id="linearGradient5807"
       gradientUnits="userSpaceOnUse"
       x1="112"
       y1="232"
       x2="112"
       y2="276" />
    <linearGradient
       inkscape:collect="always"
       id="linearGradient4475">
      <stop
         style="stop-color:#ffffff;stop-opacity:1;"
         offset="0"
         id="stop4477" />
      <stop
         style="stop-color:#ffffff;stop-opacity:0;"
         offset="1"
         id="stop4479" />
    </linearGradient>
    <clipPath
       clipPathUnits="userSpaceOnUse"
       id="clipPath4242">
      <rect
         style="color:#000000;display:inline;overflow:visible;visibility:visible;opacity:0.4;fill:#ff00ff;fill-opacity:1;fill-rule:nonzero;stroke:none;stroke-width:10;marker:none;enable-background:accumulate"
         id="rect4244"
         width="16"
         height="88"
         x="104"
         y="264" />
    </clipPath>
    <linearGradient
       inkscape:collect="always"
       xlink:href="#linearGradient4390"
       id="linearGradient4250"
       gradientUnits="userSpaceOnUse"
       x1="112"
       y1="280"
       x2="112"
       y2="232" />
    <linearGradient
       inkscape:collect="always"
       xlink:href="#linearGradient4475"
       id="linearGradient4262"
       gradientUnits="userSpaceOnUse"
       x1="112"
       y1="232"
       x2="112"
       y2="276" />
    <linearGradient
       inkscape:collect="always"
       xlink:href="#linearGradient4142"
       id="linearGradient4148"
       x1="221.78072"
       y1="353.00031"
       x2="221.78072"
       y2="494"
       gradientUnits="userSpaceOnUse" />
    <linearGradient
       inkscape:collect="always"
       id="linearGradient4142">
      <stop
         style="stop-color:#000000;stop-opacity:1;"
         offset="0"
         id="stop4144" />
      <stop
         id="stop4158"
         offset="0.75"
         style="stop-color:#000000;stop-opacity:0" />
      <stop
         style="stop-color:#000000;stop-opacity:0"
         offset="1"
         id="stop4146" />
    </linearGradient>
    <linearGradient
       inkscape:collect="always"
       xlink:href="#linearGradient7537-6"
       id="linearGradient4912-2"
       x1="256"
       y1="18"
       x2="256"
       y2="494"
       gradientUnits="userSpaceOnUse" />
    <linearGradient
       id="linearGradient7537-6">
      <stop
         style="stop-color:#68aedd;stop-opacity:0.99607843"
         offset="0"
         id="stop7539-0" />
      <stop
         style="stop-color:#2b7abe;stop-opacity:0.99607843"
         offset="1"
         id="stop7541-1" />
    </linearGradient>
    <clipPath
       clipPathUnits="userSpaceOnUse"
       id="clipPath4312">
      <rect
         style="color:#000000;display:inline;overflow:visible;visibility:visible;fill:#ff00ff;fill-opacity:1;fill-rule:nonzero;stroke:none;stroke-width:1;marker:none;enable-background:accumulate"
         id="rect4314"
         width="512"
         height="476"
         x="0"
         y="18" />
    </clipPath>
    <clipPath
       clipPathUnits="userSpaceOnUse"
       id="clipPath4333">
      <path
         inkscape:connector-curvature="0"
         id="path4335"
         d="m 0.73046875,318.93747 c -23.83345575,0 -43.15429675,19.32084 -43.15429675,43.1543 0,17.0811 9.925574,31.84171 24.322266,38.83593 -14.936271,13.51762 -24.322266,33.05558 -24.322266,54.78711 0,40.79965 33.0753541,73.87305 73.875,73.87305 20.504665,0 39.052951,-8.35773 52.4375,-21.84766 7.651688,32.64249 36.930418,56.95704 71.906248,56.95704 40.79965,0 73.87305,-33.07536 73.87305,-73.875 0,-40.79965 -33.0734,-73.87305 -73.87305,-73.87305 -6.7543,0 -13.29,0.92321 -19.50586,2.62109 0.78922,-4.16843 1.21875,-8.46335 1.21875,-12.86133 0,-37.97194 -30.78196,-68.7539 -68.753904,-68.7539 -10.2609,0 -19.987028,2.26301 -28.732422,6.29297 -6.790089,-14.9266 -21.823413,-25.31055 -39.29101525,-25.31055 z"
         style="color:#000000;display:inline;overflow:visible;visibility:visible;fill:#ff00ff;fill-opacity:1;fill-rule:nonzero;stroke:none;stroke-width:4;marker:none;enable-background:accumulate" />
    </clipPath>
    <clipPath
       clipPathUnits="userSpaceOnUse"
       id="clipPath4419">
      <path
         inkscape:connector-curvature="0"
         id="path4421"
         d="m 0.73046875,318.93747 c -23.83345575,0 -43.15429675,19.32084 -43.15429675,43.1543 0,17.0811 9.925574,31.84171 24.322266,38.83593 -14.936271,13.51762 -24.322266,33.05558 -24.322266,54.78711 0,40.79965 33.0753541,73.87305 73.875,73.87305 20.504665,0 39.052951,-8.35773 52.4375,-21.84766 7.651688,32.64249 36.930418,56.95704 71.906248,56.95704 40.79965,0 73.87305,-33.07536 73.87305,-73.875 0,-40.79965 -33.0734,-73.87305 -73.87305,-73.87305 -6.7543,0 -13.29,0.92321 -19.50586,2.62109 0.78922,-4.16843 1.21875,-8.46335 1.21875,-12.86133 0,-37.97194 -30.78196,-68.7539 -68.753904,-68.7539 -10.2609,0 -19.987028,2.26301 -28.732422,6.29297 -6.790089,-14.9266 -21.823413,-25.31055 -39.29101525,-25.31055 z"
         style="color:#000000;display:inline;overflow:visible;visibility:visible;fill:#ff00ff;fill-opacity:1;fill-rule:nonzero;stroke:none;stroke-width:4;marker:none;enable-background:accumulate" />
    </clipPath>
    <clipPath
       clipPathUnits="userSpaceOnUse"
       id="clipPath4450">
      <path
         id="path4452"
         d="m 538.79883,285.39258 c -5.78866,0 -11.46044,0.4955 -16.98438,1.42578 -3.44157,-0.67374 -6.99393,-1.03516 -10.63281,-1.03516 -24.80446,0 -45.77291,16.40695 -52.65625,38.95899 -0.38358,0.4941 -0.76993,0.98696 -1.14453,1.48828 -6.87799,-4.04178 -14.88507,-6.36914 -23.43945,-6.36914 -25.59471,0 -46.3418,20.74904 -46.3418,46.34375 0,1.21679 0.0568,2.41949 0.15234,3.61133 -5.37711,-1.07658 -10.93697,-1.64649 -16.63086,-1.64649 -44.3365,0 -80.67596,34.24506 -84.01171,77.72656 -9.58253,-4.45663 -20.25507,-6.96289 -31.51954,-6.96289 -41.36518,0 -74.89843,33.53326 -74.89843,74.89844 0,41.36519 33.53325,74.89844 74.89843,74.89844 19.15698,0 36.62661,-7.2018 49.8711,-19.0332 22.51013,29.22282 57.84625,48.05664 97.58594,48.05664 67.99401,0 123.11328,-55.12122 123.11328,-123.11524 0,-2.31202 -0.0695,-4.60808 -0.19532,-6.88867 4.2036,0.52998 8.4866,0.80273 12.83399,0.80273 56.10153,0 101.58203,-45.47855 101.58203,-101.58007 0,-56.10153 -45.4805,-101.58008 -101.58203,-101.58008 z"
         style="color:#000000;display:inline;overflow:visible;visibility:visible;fill:#ff00ff;fill-opacity:1;fill-rule:nonzero;stroke:none;stroke-width:6;marker:none;enable-background:accumulate"
         inkscape:connector-curvature="0" />
    </clipPath>
    <clipPath
       clipPathUnits="userSpaceOnUse"
       id="clipPath4481">
      <path
         id="path4483"
         d="m 412.52539,434.02344 c -20.72191,0 -38.78185,11.34704 -48.3418,28.1582 -5.38872,-3.02262 -11.6006,-4.75391 -18.21875,-4.75391 -20.6018,0 -37.30273,16.70289 -37.30273,37.30469 0,20.6018 16.70093,37.30274 37.30273,37.30274 8.67237,0 16.6473,-2.96954 22.98243,-7.9336 10.18211,12.84759 25.91173,21.09766 43.57812,21.09766 9.16357,0 17.80129,-2.23089 25.42188,-6.1582 6.70771,9.89587 18.04292,16.39843 30.89843,16.39843 20.6018,0 37.30274,-16.70093 37.30274,-37.30273 0,-20.6018 -16.70094,-37.30274 -37.30274,-37.30274 -0.47613,0 -0.94811,0.0175 -1.41992,0.0352 -4.19464,-26.54615 -27.17498,-46.84574 -54.90039,-46.84574 z"
         style="color:#000000;display:inline;overflow:visible;visibility:visible;fill:#ff00ff;fill-opacity:1;fill-rule:nonzero;stroke:none;stroke-width:6;marker:none;enable-background:accumulate"
         inkscape:connector-curvature="0" />
    </clipPath>
    <clipPath
       clipPathUnits="userSpaceOnUse"
       id="clipPath4221">
      <path
         id="path4223"
         d="m 457.14062,310.11914 c -73.64341,0 -137.16425,43.2995 -166.52343,105.82227 -5.67999,-0.74881 -11.47295,-1.14063 -17.35742,-1.14063 -72.6476,0 -131.53907,58.89146 -131.53907,131.53906 0,72.6476 58.89147,131.54102 131.53907,131.54102 31.67448,0 60.7318,-11.19813 83.43554,-29.84766 28.87637,18.86887 63.37655,29.84766 100.44531,29.84766 101.55425,0 183.87891,-82.32661 183.87891,-183.88086 0,-101.55425 -82.32466,-183.88086 -183.87891,-183.88086 z"
         style="color:#000000;display:inline;overflow:visible;visibility:visible;fill:#ff00ff;fill-opacity:1;fill-rule:nonzero;stroke:none;stroke-width:5;marker:none;enable-background:accumulate"
         inkscape:connector-curvature="0" />
    </clipPath>
    <clipPath
       clipPathUnits="userSpaceOnUse"
       id="clipPath4257">
      <circle
         transform="matrix(1.7369208,0,0,1.7369208,-429.23214,-337.97728)"
         id="path4260"
         style="color:#000000;display:inline;overflow:visible;visibility:visible;fill:#ff00ff;fill-opacity:1;fill-rule:nonzero;stroke:none;stroke-width:5;marker:none;enable-background:accumulate"
         cx="261.6759"
         cy="526.08826"
         r="131.54012" />
    </clipPath>
    <linearGradient
       inkscape:collect="always"
       xlink:href="#linearGradient7537-9"
       id="linearGradient4912-5"
       x1="256"
       y1="18"
       x2="256"
       y2="494"
       gradientUnits="userSpaceOnUse" />
    <linearGradient
       id="linearGradient7537-9">
      <stop
         style="stop-color:#82b8dc;stop-opacity:0.99607843"
         offset="0"
         id="stop7539-4" />
      <stop
         style="stop-color:#4291d4;stop-opacity:0.99607843"
         offset="1"
         id="stop7541-2" />
    </linearGradient>
    <clipPath
       clipPathUnits="userSpaceOnUse"
       id="clipPath4415">
      <path
         style="color:#000000;display:inline;overflow:visible;visibility:visible;fill:#ff00ff;fill-opacity:1;fill-rule:nonzero;stroke:none;stroke-width:1;marker:none;enable-background:accumulate"
         d="M 0,18 V 494 H 512 V 18 Z m 158.29883,227.3125 c 26.08227,0 47.44726,21.10278 47.44726,47.04297 0,25.93989 -21.36494,47.03711 -47.44726,47.03711 h -40.44727 c -17.50251,0 -31.888669,-14.26177 -31.888669,-31.73828 0,-16.29836 12.419046,-30.08903 28.519529,-31.94336 6.86927,-17.67669 23.70603,-30.39844 43.81641,-30.39844 z m 164.48437,29.44141 c 34.43266,0 62.15351,28.40591 63.7461,63.55273 12.90189,5.48067 21.99023,18.22708 21.99023,33.32617 0,19.90085 -15.68548,36.42578 -35.16601,36.42578 H 322.7832 268.53125 c -25.47299,0 -46.01758,-21.59855 -46.01758,-47.75976 0,-25.03825 18.87528,-45.72654 42.82031,-47.47071 10.2942,-22.34104 31.95238,-38.07421 57.44922,-38.07421 z"
         id="path4417"
         inkscape:connector-curvature="0" />
    </clipPath>
    <linearGradient
       gradientTransform="matrix(1,0,0,1.0756303,0,-37.361345)"
       inkscape:collect="always"
       xlink:href="#linearGradient7537-8"
       id="linearGradient4912"
       x1="256"
       y1="18"
       x2="256"
       y2="494"
       gradientUnits="userSpaceOnUse" />
    <linearGradient
       id="linearGradient7537-8">
      <stop
         style="stop-color:#747d86;stop-opacity:1"
         offset="0"
         id="stop7539-5" />
      <stop
         style="stop-color:#b6bbbf;stop-opacity:1"
         offset="1"
         id="stop7541-23" />
    </linearGradient>
    <clipPath
       clipPathUnits="userSpaceOnUse"
       id="clipPath4348">
      <path
         style="color:#000000;display:inline;overflow:visible;visibility:visible;fill:#ff00ff;fill-opacity:1;fill-rule:nonzero;stroke:none;stroke-width:1;marker:none;enable-background:accumulate"
         d="M 350,18 V 494 H 862 V 18 Z M 657.41211,256 C 695.11605,256 726,286.5073 726,324.00586 726,361.50399 695.11612,392 657.41211,392 h -58.46875 c -25.30125,0 -46.09766,-20.61721 -46.09766,-45.88086 0,-23.56055 17.9501,-43.4952 41.22461,-46.17578 C 604.00036,274.39034 628.34099,256 657.41211,256 Z"
         id="path4350"
         inkscape:connector-curvature="0" />
    </clipPath>
    <clipPath
       clipPathUnits="userSpaceOnUse"
       id="clipPath4374">
      <path
         inkscape:connector-curvature="0"
         id="path4376"
         d="m 267.87501,120 c -41.67079,0 -77.06737,25.71186 -93.89169,62.22499 C 134.84874,185.07555 104,218.88689 104,259.80817 c 0,42.75659 33.57651,78.05859 75.20832,78.05859 h 88.66669 82.65 C 382.36303,337.86676 408,310.8584 408,278.33344 408,253.65623 393.14454,232.82411 372.05833,223.86678 369.45548,166.42456 324.15004,120 267.87501,120 Z"
         style="color:#000000;font-style:normal;font-variant:normal;font-weight:normal;font-stretch:normal;line-height:normal;font-family:sans-serif;-inkscape-font-specification:sans-serif;text-indent:0;text-align:start;text-decoration:none;text-decoration-line:none;letter-spacing:normal;word-spacing:normal;text-transform:none;direction:ltr;block-progression:tb;writing-mode:lr-tb;baseline-shift:baseline;text-anchor:start;clip-rule:nonzero;display:inline;overflow:visible;visibility:visible;color-interpolation:sRGB;color-interpolation-filters:linearRGB;fill:#ff00ff;fill-opacity:1;stroke:none;stroke-width:4;marker:none;color-rendering:auto;image-rendering:auto;shape-rendering:auto;text-rendering:auto;enable-background:accumulate" />
    </clipPath>
    <clipPath
       clipPathUnits="userSpaceOnUse"
       id="clipPath4362">
      <path
         style="color:#000000;display:inline;overflow:visible;visibility:visible;fill:#ff00ff;fill-opacity:1;fill-rule:nonzero;stroke:none;stroke-width:1;marker:none;enable-background:accumulate"
         d="M 0,18 V 494 H 512 V 18 Z m 189.37891,208.00195 c 25.39034,0 46.95778,15.66633 57.20898,37.91407 23.84501,1.73687 42.64258,22.33783 42.64258,47.27148 0,26.05194 -20.45958,47.5625 -45.82617,47.5625 H 189.37891 139.01953 C 119.62037,358.75 104,342.29232 104,322.47461 c 0,-15.03603 9.0524,-27.72778 21.90039,-33.18555 1.58594,-34.99999 29.1897,-63.28711 63.47852,-63.28711 z"
         id="path4364"
         inkscape:connector-curvature="0" />
    </clipPath>
    <linearGradient
       inkscape:collect="always"
       xlink:href="#linearGradient4243"
       id="linearGradient4258"
       x1="374.25839"
       y1="207.35725"
       x2="331.25861"
       y2="265.45312"
       gradientUnits="userSpaceOnUse" />
    <filter
       inkscape:collect="always"
       style="color-interpolation-filters:sRGB"
       id="filter4457"
       x="-0.091171311"
       width="1.1823426"
       y="-0.10136878"
       height="1.2027376">
      <feGaussianBlur
         inkscape:collect="always"
         stdDeviation="5.7766557"
         id="feGaussianBlur4459" />
    </filter>
    <linearGradient
       gradientTransform="translate(6.3685182e-7,17.999998)"
       inkscape:collect="always"
       xlink:href="#linearGradient4243"
       id="linearGradient4249"
       x1="227.80859"
       y1="171.09766"
       x2="227.80859"
       y2="293.89453"
       gradientUnits="userSpaceOnUse" />
    <linearGradient
       inkscape:collect="always"
       xlink:href="#linearGradient4255"
       id="linearGradient4263"
       x1="260.50589"
       y1="111.80779"
       x2="260.50589"
       y2="293.20209"
       gradientUnits="userSpaceOnUse"
       gradientTransform="matrix(0.94666609,0,0,0.94666609,18.029037,32.3361)" />
    <linearGradient
       inkscape:collect="always"
       id="linearGradient4255">
      <stop
         style="stop-color:#e4e9ee;stop-opacity:1"
         offset="0"
         id="stop4237" />
      <stop
         style="stop-color:#b6bec6;stop-opacity:1"
         offset="1"
         id="stop4240" />
    </linearGradient>
    <linearGradient
       inkscape:collect="always"
       xlink:href="#linearGradient4330"
       id="linearGradient4336"
       x1="319.91431"
       y1="192.08571"
       x2="410.95139"
       y2="283.12277"
       gradientUnits="userSpaceOnUse"
       spreadMethod="reflect" />
    <linearGradient
       inkscape:collect="always"
       id="linearGradient4330">
      <stop
         style="stop-color:#000000;stop-opacity:1;"
         offset="0"
         id="stop4332" />
      <stop
         style="stop-color:#000000;stop-opacity:0;"
         offset="1"
         id="stop4334" />
    </linearGradient>
    <filter
       inkscape:collect="always"
       style="color-interpolation-filters:sRGB"
       id="filter4344"
       x="-0.077667587"
       width="1.1553352"
       y="-0.12566051"
       height="1.251321">
      <feGaussianBlur
         inkscape:collect="always"
         stdDeviation="9.8378946"
         id="feGaussianBlur4346" />
    </filter>
    <filter
       inkscape:collect="always"
       style="color-interpolation-filters:sRGB"
       id="filter4324"
       x="-0.0097084483"
       width="1.0194169"
       y="-0.015707564"
       height="1.0314151">
      <feGaussianBlur
         inkscape:collect="always"
         stdDeviation="1.2297368"
         id="feGaussianBlur4326" />
    </filter>
  </defs>
  <sodipodi:namedview
     id="base"
     pagecolor="#c6c6c6"
     bordercolor="#666666"
     borderopacity="1.0"
     inkscape:pageopacity="0"
     inkscape:pageshadow="2"
     inkscape:zoom="0.85449216"
     inkscape:cx="225.58416"
     inkscape:cy="126.18871"
     inkscape:document-units="px"
     inkscape:current-layer="layer1"
     showgrid="false"
     inkscape:window-width="1920"
     inkscape:window-height="1029"
     inkscape:window-x="0"
     inkscape:window-y="24"
     inkscape:window-maximized="1"
     inkscape:snap-page="true"
     inkscape:showpageshadow="false"
     showborder="true"
     inkscape:snap-bbox="true"
     inkscape:bbox-paths="true"
     inkscape:bbox-nodes="true"
     inkscape:snap-bbox-edge-midpoints="true"
     inkscape:snap-bbox-midpoints="true"
     inkscape:object-paths="true"
     inkscape:object-nodes="true"
     inkscape:snap-intersection-paths="true"
     inkscape:snap-smooth-nodes="true"
     inkscape:snap-midpoints="true"
     inkscape:snap-object-midpoints="true"
     inkscape:snap-center="true"
     showguides="false"
     inkscape:guide-bbox="true"
     inkscape:snap-grids="true"
     fit-margin-top="18"
     fit-margin-left="0"
     fit-margin-right="0.4"
     fit-margin-bottom="18"
     inkscape:snap-global="true">
    <inkscape:grid
       type="xygrid"
       id="grid811"
       originx="0px"
       originy="16.000003px"
       visible="true"
       enabled="true" />
    <sodipodi:guide
       orientation="1,0"
       position="104,176"
       id="guide819" />
    <sodipodi:guide
       orientation="1,0"
       position="120,160"
       id="guide821" />
    <sodipodi:guide
       orientation="1,0"
       position="392,144"
       id="guide823" />
    <sodipodi:guide
       orientation="1,0"
       position="408,144"
       id="guide825" />
    <sodipodi:guide
       orientation="0,1"
       position="328,408"
       id="guide827" />
    <sodipodi:guide
       orientation="0,1"
       position="336,392"
       id="guide829" />
    <sodipodi:guide
       orientation="0,1"
       position="176,120"
       id="guide831" />
    <sodipodi:guide
       orientation="0,1"
       position="216,104"
       id="guide833" />
    <inkscape:grid
       type="axonomgrid"
       id="grid835"
       units="px"
       empspacing="60"
       gridanglex="42.9"
       gridanglez="42.9"
       spacingy="3.522px"
       enabled="false"
       originx="0px"
       originy="17px" />
    <sodipodi:guide
       orientation="0,1"
       position="344,376"
       id="guide4126" />
    <sodipodi:guide
       orientation="1,0"
       position="136,96.000003"
       id="guide4130" />
    <sodipodi:guide
       orientation="1,0"
       position="376,136"
       id="guide4134" />
    <sodipodi:guide
       orientation="-0.70710678,0.70710678"
       position="256,256"
       id="guide4136" />
    <sodipodi:guide
       orientation="1,0"
       position="256,232"
       id="guide4138" />
    <sodipodi:guide
       orientation="0,1"
       position="288,256"
       id="guide4140" />
    <sodipodi:guide
       orientation="0.70710678,0.70710678"
       position="256,256"
       id="guide4142" />
    <sodipodi:guide
       orientation="0,1"
       position="256,136"
       id="guide4268" />
  </sodipodi:namedview>
  <metadata
     id="metadata3341">
    <rdf:RDF>
      <cc:Work
         rdf:about="">
        <dc:format>image/svg+xml</dc:format>
        <dc:type
           rdf:resource="http://purl.org/dc/dcmitype/StillImage" />
        <dc:title></dc:title>
      </cc:Work>
    </rdf:RDF>
  </metadata>
  <g
     inkscape:groupmode="layer"
     id="layer1"
     inkscape:label="Background"
     style="display:inline"
     transform="translate(0,18)"
     sodipodi:insensitive="true">
    <rect
       style="color:#000000;display:inline;overflow:visible;visibility:visible;fill:url(#linearGradient4912);fill-opacity:1;fill-rule:nonzero;stroke:none;stroke-width:1;marker:none;enable-background:accumulate"
       id="rect4158"
       width="512"
       height="512"
       x="0"
       y="-18" />
    <path
       style="enable-background:accumulate;display:inline;color:#000000;overflow:visible;visibility:visible;opacity:0.05;fill:#ffffff;fill-opacity:1;fill-rule:nonzero;stroke:none;stroke-width:2;stroke-linecap:butt;stroke-linejoin:miter;stroke-miterlimit:4;stroke-dasharray:none;stroke-dashoffset:1;stroke-opacity:1;marker:none"
       d="M 0,512 512,0 v 512 z"
       id="path4305-3"
       inkscape:connector-curvature="0"
       transform="translate(0,-18)" />
  </g>
  <g
     inkscape:groupmode="layer"
     id="layer4"
     inkscape:label="Pictogram"
     style="display:inline">
    <path
       sodipodi:nodetypes="cccccccccc"
       inkscape:connector-curvature="0"
       id="path4274"
       d="m 293.22413,126 c -25.9347,0.0326 -50.2895,12.46734 -65.5252,33.45504 -5.64398,-1.59399 -11.4785,-2.41319 -17.34321,-2.43508 -34.82414,0.0389 -63.3702,27.63457 -64.58777,62.43743 -23.80899,2.85675 -41.73752,23.03925 -41.76795,47.01899 -8.5e-4,26.18805 21.22845,47.41817 47.41651,47.41835 H 351.27584 C 382.604,313.89541 408.00067,288.49874 408,257.17057 407.982,234.74861 394.75766,214.4415 374.25838,205.35725 373.31294,161.27366 337.31786,126.02348 293.22413,126 Z"
       style="color:#000000;display:inline;overflow:visible;visibility:visible;opacity:0.1;fill:#000000;fill-opacity:1;fill-rule:nonzero;stroke:none;stroke-width:12;marker:none;filter:url(#filter4324);enable-background:accumulate" />
    <path
       style="color:#000000;display:inline;overflow:visible;visibility:visible;opacity:0.4;fill:url(#linearGradient4336);fill-opacity:1;fill-rule:nonzero;stroke:none;stroke-width:12;marker:none;filter:url(#filter4344);enable-background:accumulate"
       d="m 293.22413,126 c -25.9347,0.0326 -50.2895,12.46734 -65.5252,33.45504 -5.64398,-1.59399 -11.4785,-2.41319 -17.34321,-2.43508 -34.82414,0.0389 -63.3702,27.63457 -64.58777,62.43743 -23.80899,2.85675 -41.73752,23.03925 -41.76795,47.01899 -8.5e-4,26.18805 21.22845,47.41817 47.41651,47.41835 H 351.27584 C 382.604,313.89541 408.00067,288.49874 408,257.17057 407.982,234.74861 394.75766,214.4415 374.25838,205.35725 373.31294,161.27366 337.31786,126.02348 293.22413,126 Z"
       id="path4306"
       inkscape:connector-curvature="0"
       sodipodi:nodetypes="cccccccccc" />
    <path
       style="color:#000000;display:inline;overflow:visible;visibility:visible;fill:url(#linearGradient4263);fill-opacity:1;fill-rule:nonzero;stroke:none;stroke-width:12;marker:none;enable-background:accumulate"
       d="m 293.22413,124 c -25.9347,0.0326 -50.2895,12.46734 -65.5252,33.45504 -5.64398,-1.59399 -11.4785,-2.41319 -17.34321,-2.43508 -34.82414,0.0389 -63.3702,27.63457 -64.58777,62.43743 -23.80899,2.85675 -41.73752,23.03925 -41.76795,47.01899 -8.5e-4,26.18805 21.22845,47.41817 47.41651,47.41835 H 351.27584 C 382.604,311.89541 408.00067,286.49874 408,255.17057 407.982,232.74861 394.75766,212.4415 374.25838,203.35725 373.31294,159.27366 337.31786,124.02348 293.22413,124 Z"
       id="path4246"
       inkscape:connector-curvature="0"
       sodipodi:nodetypes="cccccccccc" />
    <path
       style="color:#000000;display:inline;overflow:visible;visibility:visible;opacity:0.3;fill:#ffffff;fill-opacity:1;fill-rule:nonzero;stroke:none;stroke-width:12;marker:none;enable-background:accumulate"
       d="m 293.22461,124 c -25.9347,0.0326 -50.28969,12.46738 -65.52539,33.45508 -5.64398,-1.59399 -11.47904,-2.41366 -17.34375,-2.43555 -34.82414,0.0389 -63.37032,27.63464 -64.58789,62.4375 -23.80899,2.85675 -41.73715,23.03979 -41.76758,47.01953 -1e-5,0.32762 0.0188,0.65053 0.0254,0.97656 0.53219,-23.527 18.2737,-43.18019 41.74219,-45.99609 1.21757,-34.80286 29.76375,-62.3986 64.58789,-62.4375 5.86471,0.0219 11.69977,0.84156 17.34375,2.43555 15.2357,-20.9877 39.59069,-33.42248 65.52539,-33.45508 44.09373,0.0235 80.08776,35.27383 81.0332,79.35742 20.15361,8.93107 33.26679,28.71044 33.72071,50.68164 0.004,-0.29036 0.0215,-0.57773 0.0215,-0.86914 -0.018,-22.42196 -13.24291,-42.72825 -33.74219,-51.8125 C 373.31237,159.27383 337.31834,124.02348 293.22461,124 Z"
       id="path4265"
       inkscape:connector-curvature="0" />
    <path
       style="color:#000000;display:inline;overflow:visible;visibility:visible;opacity:0.3;fill:url(#linearGradient4249);fill-opacity:1;fill-rule:nonzero;stroke:none;stroke-width:12;marker:none;enable-background:accumulate"
       d="m 227.80859,189.09766 c -22.99608,0.0241 -44.05083,12.89649 -54.55468,33.35351 -6.74442,-3.51884 -14.23657,-5.36307 -21.84375,-5.37695 -26.18399,-1.9e-4 -47.41035,21.22617 -47.41016,47.41016 -1.8e-4,26.18398 21.22618,47.41034 47.41016,47.41015 h 76.39843 c 33.90948,1.4e-4 61.39858,-27.48896 61.39844,-61.39844 1.3e-4,-33.90948 -27.48896,-61.39857 -61.39844,-61.39843 z"
       id="path4238"
       inkscape:connector-curvature="0"
       sodipodi:nodetypes="ccccccsc" />
    <path
       style="color:#000000;display:inline;overflow:visible;visibility:visible;opacity:0.2;fill:#000000;fill-opacity:1;fill-rule:nonzero;stroke:none;stroke-width:1.30533755;marker:none;enable-background:accumulate;filter:url(#filter4457)"
       d="m 292.28516,249.23242 c -0.34508,-0.006 -0.69124,0.001 -1.03907,0.0195 -5.00598,0.2719 -9.54342,3.08506 -12.04882,7.45899 l -61.25196,106.86523 c -5.60688,9.77494 1.63418,22.41709 12.8418,22.42188 h 122.50195 c 11.20762,-0.005 18.44868,-12.64694 12.8418,-22.42188 l -61.25195,-106.8652 c -2.61142,-4.55811 -7.41767,-7.38544 -12.59375,-7.47852 z"
       id="path4247"
       inkscape:connector-curvature="0" />
    <path
       inkscape:connector-curvature="0"
       id="path812"
       d="m -208.3181,605.62001 c -7.84212,0 -14.55396,5.02921 -17.31771,12.18748 -0.0612,-6.7e-4 -0.12078,0 -0.18229,0 -7.08766,0 -12.83333,6.0022 -12.83333,13.40621 0,7.40408 5.74567,13.40631 12.83333,13.40631 h 17.5 16.33334 c 5.15466,0 9.33333,-4.36531 9.33333,-9.75006 0,-4.54336 -2.97407,-8.36314 -7,-9.44525 0.001,-0.10288 0,-0.20153 0,-0.30467 0,-10.7696 -8.35735,-19.50002 -18.66667,-19.50002 z"
       style="color:#000000;display:none;overflow:visible;visibility:visible;fill:#ffffff;stroke:#cccccc;stroke-width:4;stroke-miterlimit:4;stroke-dasharray:none;marker:none;enable-background:accumulate" />
    <path
       style="color:#000000;display:none;overflow:visible;visibility:visible;fill:none;stroke:#cccccc;stroke-width:3.99999976;stroke-miterlimit:4;stroke-dasharray:none;marker:none;enable-background:accumulate"
       d="m 288.86631,828.08446 c -6.34922,0 -11.78333,4.0718 -14.02095,9.86737 -0.0496,-5.5e-4 -0.0978,0 -0.14759,0 -5.73839,0 -10.39026,4.85956 -10.39026,10.85408 0,5.99457 4.65187,10.85416 10.39026,10.85416 h 14.16854 13.22398 c 4.17337,0 7.55655,-3.53429 7.55655,-7.89395 0,-3.67845 -2.4079,-6.77106 -5.66742,-7.64717 10e-4,-0.0833 0,-0.16316 0,-0.24667 0,-8.7194 -6.76637,-15.78782 -15.11311,-15.78782 z"
       id="path4340"
       inkscape:connector-curvature="0" />
    <path
       style="color:#000000;display:none;overflow:visible;visibility:visible;fill:none;stroke:#cccccc;stroke-width:4;stroke-miterlimit:4;stroke-dasharray:none;marker:none;enable-background:accumulate"
       d="m 736.15803,1098.4421 c -9.17829,0 -17.03372,5.8861 -20.26838,14.264 -0.0716,-8e-4 -0.14136,0 -0.21335,0 -8.29528,0 -15.01993,7.0249 -15.01993,15.6904 0,8.6656 6.72465,15.6905 15.01993,15.6905 h 20.48173 19.11628 c 6.03294,0 10.92359,-5.109 10.92359,-11.4113 0,-5.3174 -3.48081,-9.7881 -8.19269,-11.0545 0.002,-0.1205 0,-0.2359 0,-0.3566 0,-12.6046 -9.78132,-22.8225 -21.84718,-22.8225 z"
       id="path4330"
       inkscape:connector-curvature="0" />
    <path
       style="color:#000000;display:inline;overflow:visible;visibility:visible;opacity:0.15;fill:url(#linearGradient4258);fill-opacity:1;fill-rule:nonzero;stroke:none;stroke-width:12;marker:none;enable-background:accumulate"
       id="path4236"
       r="56.516312"
       cy="255.37837"
       cx="351.48114"
       d=""
       inkscape:connector-curvature="0" />
    <path
       inkscape:transform-center-y="-63.866797"
       transform="matrix(6.8698142,0,0,6.9198125,-17.10375,-61.004578)"
       d="m 43.994141,45.582031 c -3.194355,5.186492 -6.122769,10.555726 -9.214844,15.8125 -0.461073,1.147645 0.458514,2.417925 1.69623,2.261719 5.813496,0 11.626993,0 17.440489,0 1.222254,-0.177254 1.865258,-1.608056 1.108919,-2.600807 -2.906749,-5.034757 -5.813498,-10.069514 -8.720247,-15.104271 -0.791736,-0.740321 -1.323571,-0.821364 -2.310547,-0.369141 z"
       style="color:#000000;display:inline;overflow:visible;visibility:visible;fill:#df382c;fill-opacity:1;fill-rule:nonzero;stroke:none;stroke-width:1.30533755;marker:none;enable-background:accumulate"
       inkscape:original="M 45 46.705078 L 36.083984 62.148438 L 53.916016 62.148438 L 45 46.705078 z "
       inkscape:radius="1.5073866"
       sodipodi:type="inkscape:offset"
       id="path17" />
    <text
       xml:space="preserve"
       style="font-style:normal;font-variant:normal;font-weight:500;font-stretch:normal;font-size:102.90104675px;line-height:125%;font-family:Ubuntu;-inkscape-font-specification:'Ubuntu Medium';text-align:center;letter-spacing:0px;word-spacing:0px;writing-mode:lr-tb;text-anchor:middle;fill:#ffffff;fill-opacity:1;stroke:none"
       x="292.02893"
       y="362.15933"
       id="text4264"
       sodipodi:linespacing="125%"
       transform="scale(1.0001435,0.99985649)"><tspan
         sodipodi:role="line"
         id="tspan4266"
         x="292.02893"
         y="362.15933">!</tspan></text>
    <path
       style="color:#000000;font-style:normal;font-variant:normal;font-weight:normal;font-stretch:normal;line-height:normal;font-family:sans-serif;-inkscape-font-specification:sans-serif;text-indent:0;text-align:start;text-decoration:none;text-decoration-line:none;letter-spacing:normal;word-spacing:normal;text-transform:none;direction:ltr;block-progression:tb;writing-mode:lr-tb;baseline-shift:baseline;text-anchor:start;clip-rule:nonzero;display:inline;overflow:visible;visibility:visible;isolation:auto;mix-blend-mode:normal;color-interpolation:sRGB;color-interpolation-filters:linearRGB;fill:#ffffff;fill-opacity:1;fill-rule:nonzero;stroke:none;stroke-width:1.30533755;marker:none;color-rendering:auto;image-rendering:auto;shape-rendering:auto;text-rendering:auto;enable-background:accumulate"
       d="m 291.24625,247.25144 c -5.00598,0.2719 -9.54361,3.0865 -12.04901,7.46043 l -61.25137,106.86515 c -5.60688,9.77494 1.63303,22.41702 12.84065,22.42181 h 122.50274 c 11.20762,-0.005 18.44753,-12.64687 12.84065,-22.42181 L 304.87854,254.71187 c -2.78551,-4.86198 -8.06702,-7.75478 -13.63229,-7.46043 z m 0.48303,9.02819 c 2.21515,-0.11716 4.28517,1.01112 5.39388,2.94634 l 61.25137,106.86514 c 2.36943,4.13083 -0.34901,8.87751 -5.08527,8.87953 H 230.78652 c -4.73626,-0.002 -7.4547,-4.7487 -5.08527,-8.87953 l 61.25137,-106.86514 c 0.99533,-1.73767 2.7879,-2.83832 4.77666,-2.94634 z"
       id="path4240"
       inkscape:connector-curvature="0" />
  </g>
</svg>
