<?xml version="1.0" encoding="UTF-8" standalone="no"?>
<!-- Created with Inkscape (http://www.inkscape.org/) -->

<svg
   xmlns:dc="http://purl.org/dc/elements/1.1/"
   xmlns:cc="http://creativecommons.org/ns#"
   xmlns:rdf="http://www.w3.org/1999/02/22-rdf-syntax-ns#"
   xmlns:svg="http://www.w3.org/2000/svg"
   xmlns="http://www.w3.org/2000/svg"
   xmlns:xlink="http://www.w3.org/1999/xlink"
   xmlns:sodipodi="http://sodipodi.sourceforge.net/DTD/sodipodi-0.dtd"
   xmlns:inkscape="http://www.inkscape.org/namespaces/inkscape"
   width="512.40002"
   height="512"
   id="svg3336"
   version="1.1"
   inkscape:version="0.91+devel r"
   sodipodi:docname="weather-few-clouds-night.svg"
   inkscape:export-filename="app_shape02.png"
   inkscape:export-xdpi="180"
   inkscape:export-ydpi="180"
   style="enable-background:new"
   viewBox="0 0 512.40002 512">
  <defs
     id="defs3338">
    <linearGradient
       inkscape:collect="always"
       id="linearGradient4369">
      <stop
         style="stop-color:#000000;stop-opacity:1;"
         offset="0"
         id="stop4371" />
      <stop
         style="stop-color:#000000;stop-opacity:0;"
         offset="1"
         id="stop4373" />
    </linearGradient>
    <filter
       style="color-interpolation-filters:sRGB"
       inkscape:label="Inner Shadow"
       id="filter4245">
      <feFlood
         flood-opacity="0.40000000000000002"
         flood-color="rgb(0,0,0)"
         result="flood"
         id="feFlood4247" />
      <feComposite
         in="flood"
         in2="SourceGraphic"
         operator="out"
         result="composite1"
         id="feComposite4249" />
      <feGaussianBlur
         in="composite1"
         stdDeviation="6"
         result="blur"
         id="feGaussianBlur4251" />
      <feOffset
         dx="0"
         dy="2"
         result="offset"
         id="feOffset4253" />
      <feComposite
         in="offset"
         in2="SourceGraphic"
         operator="atop"
         result="composite2"
         id="feComposite4255" />
    </filter>
    <filter
       style="color-interpolation-filters:sRGB"
       inkscape:label="Drop Shadow"
       id="filter4711">
      <feFlood
         flood-opacity="0.501961"
         flood-color="rgb(0,0,0)"
         result="flood"
         id="feFlood4713" />
      <feComposite
         in="flood"
         in2="SourceGraphic"
         operator="in"
         result="composite1"
         id="feComposite4715" />
      <feGaussianBlur
         in="composite1"
         stdDeviation="6"
         result="blur"
         id="feGaussianBlur4717" />
      <feOffset
         dx="0"
         dy="4"
         result="offset"
         id="feOffset4719" />
      <feComposite
         in="SourceGraphic"
         in2="offset"
         operator="over"
         result="composite2"
         id="feComposite4721" />
    </filter>
    <filter
       style="color-interpolation-filters:sRGB"
       inkscape:label="Colorize"
       id="filter4202">
      <feComposite
         k4="0"
         k3="0"
         in2="SourceGraphic"
         operator="arithmetic"
         k1="0"
         k2="1"
         result="composite1"
         id="feComposite4204" />
      <feColorMatrix
         in="composite1"
         values="0"
         type="saturate"
         result="colormatrix1"
         id="feColorMatrix4206" />
      <feFlood
         flood-opacity="1"
         flood-color="rgb(21,86,141)"
         result="flood1"
         id="feFlood4208" />
      <feBlend
         in="flood1"
         in2="colormatrix1"
         mode="multiply"
         result="blend1"
         id="feBlend4210" />
      <feBlend
         in2="blend1"
         mode="screen"
         result="blend2"
         id="feBlend4212" />
      <feColorMatrix
         in="blend2"
         values="1"
         type="saturate"
         result="colormatrix2"
         id="feColorMatrix4214" />
      <feComposite
         in="colormatrix2"
         in2="SourceGraphic"
         operator="in"
         result="composite2"
         id="feComposite4216" />
    </filter>
    <filter
       style="color-interpolation-filters:sRGB"
       inkscape:label="Colorize"
       id="filter4154">
      <feComposite
         in2="SourceGraphic"
         operator="arithmetic"
         k1="0"
         k2="1"
         result="composite1"
         id="feComposite4156"
         k3="0"
         k4="0" />
      <feColorMatrix
         in="composite1"
         values="0"
         type="saturate"
         result="colormatrix1"
         id="feColorMatrix4158" />
      <feFlood
         flood-opacity="1"
         flood-color="rgb(67,115,183)"
         result="flood1"
         id="feFlood4160" />
      <feBlend
         in="flood1"
         in2="colormatrix1"
         mode="multiply"
         result="blend1"
         id="feBlend4162" />
      <feBlend
         in2="blend1"
         mode="screen"
         result="blend2"
         id="feBlend4164" />
      <feColorMatrix
         in="blend2"
         values="1"
         type="saturate"
         result="colormatrix2"
         id="feColorMatrix4166" />
      <feComposite
         in="colormatrix2"
         in2="SourceGraphic"
         operator="in"
         result="composite2"
         id="feComposite4168" />
    </filter>
    <linearGradient
       id="linearGradient3899">
      <stop
         id="stop4292"
         offset="0"
         style="stop-color:#fbf7e3;stop-opacity:1" />
      <stop
         id="stop4294"
         offset="1"
         style="stop-color:#c6b386;stop-opacity:1" />
    </linearGradient>
    <clipPath
       clipPathUnits="userSpaceOnUse"
       id="clipPath4241">
      <path
         sodipodi:nodetypes="sssssssss"
         inkscape:connector-curvature="0"
         id="path4243"
         d="m 166.05406,17.99997 h 179.89189 c 145.29729,0 166.05406,20.73726 166.05406,165.89904 v 144.20253 c 0,145.16118 -20.75677,165.89848 -166.05406,165.89848 H 166.05406 C 20.756757,494.00002 0,473.26272 0,328.10154 V 183.89901 C 0,38.73723 20.756757,17.99997 166.05406,17.99997 Z"
         style="display:inline;fill:#0000ff;fill-opacity:0.08118083;stroke:#0000ff" />
    </clipPath>
    <clipPath
       clipPathUnits="userSpaceOnUse"
       id="clipPath4510">
      <path
         style="display:inline;fill:#0000ff;fill-opacity:0.08118083;stroke:#0000ff"
         d="m 463.30663,-109.56117 h 179.89189 c 145.29729,0 166.05406,20.73726 166.05406,165.89904 V 200.5404 c 0,145.16118 -20.75677,165.89848 -166.05406,165.89848 H 463.30663 c -145.2973,0 -166.05406,-20.7373 -166.05406,-165.89848 V 56.33787 c 0,-145.16178 20.75676,-165.89904 166.05406,-165.89904 z"
         id="path4512"
         inkscape:connector-curvature="0"
         sodipodi:nodetypes="sssssssss" />
    </clipPath>
    <clipPath
       clipPathUnits="userSpaceOnUse"
       id="clipPath4707">
      <path
         sodipodi:nodetypes="sssssssss"
         inkscape:connector-curvature="0"
         id="path4709"
         d="m 166.05406,17.99997 h 179.89189 c 145.29729,0 166.05406,20.73726 166.05406,165.89904 v 144.20253 c 0,145.16118 -20.75677,165.89848 -166.05406,165.89848 H 166.05406 C 20.75676,494.00002 0,473.26272 0,328.10154 V 183.89901 C 0,38.73723 20.75676,17.99997 166.05406,17.99997 Z"
         style="display:inline;fill:#ff00ff;fill-opacity:0.50479234;stroke:none" />
    </clipPath>
    <clipPath
       clipPathUnits="userSpaceOnUse"
       id="clipPath4170">
      <path
         style="display:inline;fill:#ffffff;fill-opacity:1;stroke:none"
         d="m 166.05406,17.99997 h 179.89189 c 145.29729,0 166.05406,20.73726 166.05406,165.89904 v 144.20253 c 0,145.16118 -20.75677,165.89848 -166.05406,165.89848 H 166.05406 C 20.75676,494.00002 0,473.26272 0,328.10154 V 183.89901 C 0,38.73723 20.75676,17.99997 166.05406,17.99997 Z"
         id="path4172"
         inkscape:connector-curvature="0"
         sodipodi:nodetypes="sssssssss" />
    </clipPath>
    <linearGradient
       inkscape:collect="always"
       xlink:href="#linearGradient7537"
       id="linearGradient3223"
       gradientUnits="userSpaceOnUse"
       gradientTransform="matrix(5.3329426,0,0,-5.4179322,0.01904181,5682.273)"
       x1="44.236801"
       y1="1046.2661"
       x2="44.236801"
       y2="960.21375" />
    <linearGradient
       id="linearGradient7537">
      <stop
         style="stop-color:#247eca;stop-opacity:0.99607843"
         offset="0"
         id="stop7539" />
      <stop
         style="stop-color:#a1d4e2;stop-opacity:0.99607843"
         offset="1"
         id="stop7541" />
    </linearGradient>
    <clipPath
       clipPathUnits="userSpaceOnUse"
       id="clipPath4967">
      <path
         style="color:#000000;display:inline;overflow:visible;visibility:visible;opacity:0.4;fill:#ff00ff;fill-opacity:1;fill-rule:nonzero;stroke:none;stroke-width:1;marker:none;enable-background:accumulate"
         d="M 119.86447,193.96008 236.17789,151.15047 339.16724,166.36466 392.09848,328.03894 392.283,494 H 119.86447 Z"
         id="path4969"
         inkscape:connector-curvature="0"
         sodipodi:nodetypes="ccccccc" />
    </clipPath>
    <clipPath
       clipPathUnits="userSpaceOnUse"
       id="clipPath4126">
      <path
         style="color:#000000;display:inline;overflow:visible;visibility:visible;opacity:0.57099998;fill:#ff00ff;fill-opacity:1;fill-rule:nonzero;stroke:none;stroke-width:1;marker:none;enable-background:accumulate"
         d="m 160.28233,309.99918 122.94966,60 v 124.0008 H 160.28233 Z"
         id="path4128"
         inkscape:connector-curvature="0"
         sodipodi:nodetypes="ccccc" />
    </clipPath>
    <clipPath
       clipPathUnits="userSpaceOnUse"
       id="clipPath4327">
      <path
         sodipodi:nodetypes="cccccc"
         inkscape:connector-curvature="0"
         id="path4329"
         d="m 620,120 h 272 v 204 l -68,68 H 620 Z"
         style="color:#000000;display:inline;overflow:visible;visibility:visible;opacity:0.43800001;fill:#ff00ff;fill-opacity:1;fill-rule:nonzero;stroke:none;stroke-width:10;marker:none;enable-background:accumulate" />
    </clipPath>
    <clipPath
       clipPathUnits="userSpaceOnUse"
       id="clipPath4175">
      <rect
         style="color:#000000;display:inline;overflow:visible;visibility:visible;opacity:0.4;fill:#ff00ff;fill-opacity:1;fill-rule:nonzero;stroke:none;stroke-width:10;marker:none;enable-background:accumulate"
         id="rect4177"
         width="272"
         height="224"
         x="120"
         y="270" />
    </clipPath>
    <linearGradient
       inkscape:collect="always"
       xlink:href="#linearGradient4181"
       id="linearGradient4465"
       gradientUnits="userSpaceOnUse"
       x1="176"
       y1="240"
       x2="176"
       y2="136"
       gradientTransform="translate(0,-376)" />
    <linearGradient
       id="linearGradient4181"
       inkscape:collect="always">
      <stop
         id="stop4311"
         offset="0"
         style="stop-color:#c7c8ca;stop-opacity:1" />
      <stop
         id="stop4313"
         offset="1"
         style="stop-color:#aaadb2;stop-opacity:1" />
    </linearGradient>
    <linearGradient
       inkscape:collect="always"
       xlink:href="#linearGradient4277"
       id="linearGradient4283"
       x1="176"
       y1="136"
       x2="176"
       y2="237.9375"
       gradientUnits="userSpaceOnUse" />
    <linearGradient
       inkscape:collect="always"
       id="linearGradient4277">
      <stop
         style="stop-color:#ffffff;stop-opacity:1;"
         offset="0"
         id="stop4279" />
      <stop
         style="stop-color:#ffffff;stop-opacity:0;"
         offset="1"
         id="stop4281" />
    </linearGradient>
    <linearGradient
       inkscape:collect="always"
       xlink:href="#linearGradient4181"
       id="linearGradient4189"
       gradientUnits="userSpaceOnUse"
       x1="176"
       y1="240"
       x2="176"
       y2="136"
       gradientTransform="translate(0,-376)" />
    <linearGradient
       inkscape:collect="always"
       xlink:href="#linearGradient4277"
       id="linearGradient4197"
       x1="176"
       y1="136"
       x2="176"
       y2="237.9375"
       gradientUnits="userSpaceOnUse" />
    <linearGradient
       inkscape:collect="always"
       xlink:href="#linearGradient4181"
       id="linearGradient4209"
       gradientUnits="userSpaceOnUse"
       x1="176"
       y1="240"
       x2="176"
       y2="136"
       gradientTransform="translate(0,-376)" />
    <linearGradient
       inkscape:collect="always"
       xlink:href="#linearGradient4277"
       id="linearGradient4217"
       x1="176"
       y1="136"
       x2="176"
       y2="237.9375"
       gradientUnits="userSpaceOnUse" />
    <clipPath
       clipPathUnits="userSpaceOnUse"
       id="clipPath4371">
      <path
         style="color:#000000;display:inline;overflow:visible;visibility:visible;fill:#ff0000;fill-opacity:0.50479234;fill-rule:nonzero;stroke:none;stroke-width:40;marker:none;enable-background:accumulate"
         d="m 104,232 v 48 h 136 v -48 z m 168,0 v 48 H 408 V 232 Z M 104,368 V 480 H 240 V 368 Z m 168,0 V 480 H 408 V 368 Z"
         id="path4373"
         inkscape:connector-curvature="0" />
    </clipPath>
    <linearGradient
       inkscape:collect="always"
       xlink:href="#linearGradient4181-5"
       id="linearGradient4465-6"
       gradientUnits="userSpaceOnUse"
       x1="176"
       y1="240"
       x2="176"
       y2="136"
       gradientTransform="translate(0,-376)" />
    <linearGradient
       id="linearGradient4181-5"
       inkscape:collect="always">
      <stop
         id="stop4311-7"
         offset="0"
         style="stop-color:#888888;stop-opacity:1" />
      <stop
         id="stop4313-3"
         offset="1"
         style="stop-color:#646464;stop-opacity:1" />
    </linearGradient>
    <linearGradient
       inkscape:collect="always"
       xlink:href="#linearGradient4181-5"
       id="linearGradient4167"
       gradientUnits="userSpaceOnUse"
       x1="176"
       y1="240"
       x2="176"
       y2="136"
       gradientTransform="translate(0,-376)" />
    <linearGradient
       inkscape:collect="always"
       xlink:href="#linearGradient4181-5"
       id="linearGradient4179"
       gradientUnits="userSpaceOnUse"
       x1="176"
       y1="240"
       x2="176"
       y2="136"
       gradientTransform="translate(0,-376)" />
    <clipPath
       clipPathUnits="userSpaceOnUse"
       id="clipPath4371-1">
      <path
         style="color:#000000;display:inline;overflow:visible;visibility:visible;fill:#ff0000;fill-opacity:0.50479234;fill-rule:nonzero;stroke:none;stroke-width:40;marker:none;enable-background:accumulate"
         d="m 104,232 v 48 h 136 v -48 z m 168,0 v 48 H 408 V 232 Z M 104,368 V 480 H 240 V 368 Z m 168,0 V 480 H 408 V 368 Z"
         id="path4373-0"
         inkscape:connector-curvature="0" />
    </clipPath>
    <linearGradient
       inkscape:collect="always"
       xlink:href="#linearGradient4390"
       id="linearGradient5805"
       gradientUnits="userSpaceOnUse"
       x1="112"
       y1="280"
       x2="112"
       y2="232" />
    <linearGradient
       inkscape:collect="always"
       id="linearGradient4390">
      <stop
         style="stop-color:#b4b4b4;stop-opacity:0.99607843"
         offset="0"
         id="stop4392" />
      <stop
         id="stop4398"
         offset="0.16579545"
         style="stop-color:#d0d0d0;stop-opacity:0.99607843" />
      <stop
         style="stop-color:#e3e3e3;stop-opacity:0.99607843"
         offset="0.82897723"
         id="stop4400" />
      <stop
         style="stop-color:#ffffff;stop-opacity:0.99607843"
         offset="1"
         id="stop4394" />
    </linearGradient>
    <linearGradient
       inkscape:collect="always"
       xlink:href="#linearGradient4475"
       id="linearGradient5807"
       gradientUnits="userSpaceOnUse"
       x1="112"
       y1="232"
       x2="112"
       y2="276" />
    <linearGradient
       inkscape:collect="always"
       id="linearGradient4475">
      <stop
         style="stop-color:#ffffff;stop-opacity:1;"
         offset="0"
         id="stop4477" />
      <stop
         style="stop-color:#ffffff;stop-opacity:0;"
         offset="1"
         id="stop4479" />
    </linearGradient>
    <clipPath
       clipPathUnits="userSpaceOnUse"
       id="clipPath4242">
      <rect
         style="color:#000000;display:inline;overflow:visible;visibility:visible;opacity:0.4;fill:#ff00ff;fill-opacity:1;fill-rule:nonzero;stroke:none;stroke-width:10;marker:none;enable-background:accumulate"
         id="rect4244"
         width="16"
         height="88"
         x="104"
         y="264" />
    </clipPath>
    <linearGradient
       inkscape:collect="always"
       xlink:href="#linearGradient4390"
       id="linearGradient4250"
       gradientUnits="userSpaceOnUse"
       x1="112"
       y1="280"
       x2="112"
       y2="232" />
    <linearGradient
       inkscape:collect="always"
       xlink:href="#linearGradient4475"
       id="linearGradient4262"
       gradientUnits="userSpaceOnUse"
       x1="112"
       y1="232"
       x2="112"
       y2="276" />
    <linearGradient
       inkscape:collect="always"
       xlink:href="#linearGradient4142"
       id="linearGradient4148"
       x1="221.78072"
       y1="353.00031"
       x2="221.78072"
       y2="494"
       gradientUnits="userSpaceOnUse" />
    <linearGradient
       inkscape:collect="always"
       id="linearGradient4142">
      <stop
         style="stop-color:#000000;stop-opacity:1;"
         offset="0"
         id="stop4144" />
      <stop
         id="stop4158"
         offset="0.75"
         style="stop-color:#000000;stop-opacity:0" />
      <stop
         style="stop-color:#000000;stop-opacity:0"
         offset="1"
         id="stop4146" />
    </linearGradient>
    <linearGradient
       inkscape:collect="always"
       xlink:href="#linearGradient7537-6"
       id="linearGradient4912-2"
       x1="256"
       y1="18"
       x2="256"
       y2="494"
       gradientUnits="userSpaceOnUse" />
    <linearGradient
       id="linearGradient7537-6">
      <stop
         style="stop-color:#68aedd;stop-opacity:0.99607843"
         offset="0"
         id="stop7539-0" />
      <stop
         style="stop-color:#2b7abe;stop-opacity:0.99607843"
         offset="1"
         id="stop7541-1" />
    </linearGradient>
    <clipPath
       clipPathUnits="userSpaceOnUse"
       id="clipPath4312">
      <rect
         style="color:#000000;display:inline;overflow:visible;visibility:visible;fill:#ff00ff;fill-opacity:1;fill-rule:nonzero;stroke:none;stroke-width:1;marker:none;enable-background:accumulate"
         id="rect4314"
         width="512"
         height="476"
         x="0"
         y="18" />
    </clipPath>
    <clipPath
       clipPathUnits="userSpaceOnUse"
       id="clipPath4333">
      <path
         inkscape:connector-curvature="0"
         id="path4335"
         d="m 0.73046875,318.93747 c -23.83345575,0 -43.15429675,19.32084 -43.15429675,43.1543 0,17.0811 9.925574,31.84171 24.322266,38.83593 -14.936271,13.51762 -24.322266,33.05558 -24.322266,54.78711 0,40.79965 33.0753541,73.87305 73.875,73.87305 20.504665,0 39.052951,-8.35773 52.4375,-21.84766 7.651688,32.64249 36.930418,56.95704 71.906248,56.95704 40.79965,0 73.87305,-33.07536 73.87305,-73.875 0,-40.79965 -33.0734,-73.87305 -73.87305,-73.87305 -6.7543,0 -13.29,0.92321 -19.50586,2.62109 0.78922,-4.16843 1.21875,-8.46335 1.21875,-12.86133 0,-37.97194 -30.78196,-68.7539 -68.753904,-68.7539 -10.2609,0 -19.987028,2.26301 -28.732422,6.29297 -6.790089,-14.9266 -21.823413,-25.31055 -39.29101525,-25.31055 z"
         style="color:#000000;display:inline;overflow:visible;visibility:visible;fill:#ff00ff;fill-opacity:1;fill-rule:nonzero;stroke:none;stroke-width:4;marker:none;enable-background:accumulate" />
    </clipPath>
    <clipPath
       clipPathUnits="userSpaceOnUse"
       id="clipPath4419">
      <path
         inkscape:connector-curvature="0"
         id="path4421"
         d="m 0.73046875,318.93747 c -23.83345575,0 -43.15429675,19.32084 -43.15429675,43.1543 0,17.0811 9.925574,31.84171 24.322266,38.83593 -14.936271,13.51762 -24.322266,33.05558 -24.322266,54.78711 0,40.79965 33.0753541,73.87305 73.875,73.87305 20.504665,0 39.052951,-8.35773 52.4375,-21.84766 7.651688,32.64249 36.930418,56.95704 71.906248,56.95704 40.79965,0 73.87305,-33.07536 73.87305,-73.875 0,-40.79965 -33.0734,-73.87305 -73.87305,-73.87305 -6.7543,0 -13.29,0.92321 -19.50586,2.62109 0.78922,-4.16843 1.21875,-8.46335 1.21875,-12.86133 0,-37.97194 -30.78196,-68.7539 -68.753904,-68.7539 -10.2609,0 -19.987028,2.26301 -28.732422,6.29297 -6.790089,-14.9266 -21.823413,-25.31055 -39.29101525,-25.31055 z"
         style="color:#000000;display:inline;overflow:visible;visibility:visible;fill:#ff00ff;fill-opacity:1;fill-rule:nonzero;stroke:none;stroke-width:4;marker:none;enable-background:accumulate" />
    </clipPath>
    <clipPath
       clipPathUnits="userSpaceOnUse"
       id="clipPath4450">
      <path
         id="path4452"
         d="m 538.79883,285.39258 c -5.78866,0 -11.46044,0.4955 -16.98438,1.42578 -3.44157,-0.67374 -6.99393,-1.03516 -10.63281,-1.03516 -24.80446,0 -45.77291,16.40695 -52.65625,38.95899 -0.38358,0.4941 -0.76993,0.98696 -1.14453,1.48828 -6.87799,-4.04178 -14.88507,-6.36914 -23.43945,-6.36914 -25.59471,0 -46.3418,20.74904 -46.3418,46.34375 0,1.21679 0.0568,2.41949 0.15234,3.61133 -5.37711,-1.07658 -10.93697,-1.64649 -16.63086,-1.64649 -44.3365,0 -80.67596,34.24506 -84.01171,77.72656 -9.58253,-4.45663 -20.25507,-6.96289 -31.51954,-6.96289 -41.36518,0 -74.89843,33.53326 -74.89843,74.89844 0,41.36519 33.53325,74.89844 74.89843,74.89844 19.15698,0 36.62661,-7.2018 49.8711,-19.0332 22.51013,29.22282 57.84625,48.05664 97.58594,48.05664 67.99401,0 123.11328,-55.12122 123.11328,-123.11524 0,-2.31202 -0.0695,-4.60808 -0.19532,-6.88867 4.2036,0.52998 8.4866,0.80273 12.83399,0.80273 56.10153,0 101.58203,-45.47855 101.58203,-101.58007 0,-56.10153 -45.4805,-101.58008 -101.58203,-101.58008 z"
         style="color:#000000;display:inline;overflow:visible;visibility:visible;fill:#ff00ff;fill-opacity:1;fill-rule:nonzero;stroke:none;stroke-width:6;marker:none;enable-background:accumulate"
         inkscape:connector-curvature="0" />
    </clipPath>
    <clipPath
       clipPathUnits="userSpaceOnUse"
       id="clipPath4481">
      <path
         id="path4483"
         d="m 412.52539,434.02344 c -20.72191,0 -38.78185,11.34704 -48.3418,28.1582 -5.38872,-3.02262 -11.6006,-4.75391 -18.21875,-4.75391 -20.6018,0 -37.30273,16.70289 -37.30273,37.30469 0,20.6018 16.70093,37.30274 37.30273,37.30274 8.67237,0 16.6473,-2.96954 22.98243,-7.9336 10.18211,12.84759 25.91173,21.09766 43.57812,21.09766 9.16357,0 17.80129,-2.23089 25.42188,-6.1582 6.70771,9.89587 18.04292,16.39843 30.89843,16.39843 20.6018,0 37.30274,-16.70093 37.30274,-37.30273 0,-20.6018 -16.70094,-37.30274 -37.30274,-37.30274 -0.47613,0 -0.94811,0.0175 -1.41992,0.0352 -4.19464,-26.54615 -27.17498,-46.84574 -54.90039,-46.84574 z"
         style="color:#000000;display:inline;overflow:visible;visibility:visible;fill:#ff00ff;fill-opacity:1;fill-rule:nonzero;stroke:none;stroke-width:6;marker:none;enable-background:accumulate"
         inkscape:connector-curvature="0" />
    </clipPath>
    <clipPath
       clipPathUnits="userSpaceOnUse"
       id="clipPath4221">
      <path
         id="path4223"
         d="m 457.14062,310.11914 c -73.64341,0 -137.16425,43.2995 -166.52343,105.82227 -5.67999,-0.74881 -11.47295,-1.14063 -17.35742,-1.14063 -72.6476,0 -131.53907,58.89146 -131.53907,131.53906 0,72.6476 58.89147,131.54102 131.53907,131.54102 31.67448,0 60.7318,-11.19813 83.43554,-29.84766 28.87637,18.86887 63.37655,29.84766 100.44531,29.84766 101.55425,0 183.87891,-82.32661 183.87891,-183.88086 0,-101.55425 -82.32466,-183.88086 -183.87891,-183.88086 z"
         style="color:#000000;display:inline;overflow:visible;visibility:visible;fill:#ff00ff;fill-opacity:1;fill-rule:nonzero;stroke:none;stroke-width:5;marker:none;enable-background:accumulate"
         inkscape:connector-curvature="0" />
    </clipPath>
    <clipPath
       clipPathUnits="userSpaceOnUse"
       id="clipPath4257">
      <circle
         transform="matrix(1.7369208,0,0,1.7369208,-429.23214,-337.97728)"
         id="path4260"
         style="color:#000000;display:inline;overflow:visible;visibility:visible;fill:#ff00ff;fill-opacity:1;fill-rule:nonzero;stroke:none;stroke-width:5;marker:none;enable-background:accumulate"
         cx="261.6759"
         cy="526.08826"
         r="131.54012" />
    </clipPath>
    <linearGradient
       inkscape:collect="always"
       xlink:href="#linearGradient7537-9"
       id="linearGradient4912-5"
       x1="256"
       y1="18"
       x2="256"
       y2="494"
       gradientUnits="userSpaceOnUse" />
    <linearGradient
       id="linearGradient7537-9">
      <stop
         style="stop-color:#82b8dc;stop-opacity:0.99607843"
         offset="0"
         id="stop7539-4" />
      <stop
         style="stop-color:#4291d4;stop-opacity:0.99607843"
         offset="1"
         id="stop7541-2" />
    </linearGradient>
    <clipPath
       clipPathUnits="userSpaceOnUse"
       id="clipPath4415">
      <path
         style="color:#000000;display:inline;overflow:visible;visibility:visible;fill:#ff00ff;fill-opacity:1;fill-rule:nonzero;stroke:none;stroke-width:1;marker:none;enable-background:accumulate"
         d="M 0,18 V 494 H 512 V 18 Z m 158.29883,227.3125 c 26.08227,0 47.44726,21.10278 47.44726,47.04297 0,25.93989 -21.36494,47.03711 -47.44726,47.03711 h -40.44727 c -17.50251,0 -31.888669,-14.26177 -31.888669,-31.73828 0,-16.29836 12.419046,-30.08903 28.519529,-31.94336 6.86927,-17.67669 23.70603,-30.39844 43.81641,-30.39844 z m 164.48437,29.44141 c 34.43266,0 62.15351,28.40591 63.7461,63.55273 12.90189,5.48067 21.99023,18.22708 21.99023,33.32617 0,19.90085 -15.68548,36.42578 -35.16601,36.42578 H 322.7832 268.53125 c -25.47299,0 -46.01758,-21.59855 -46.01758,-47.75976 0,-25.03825 18.87528,-45.72654 42.82031,-47.47071 10.2942,-22.34104 31.95238,-38.07421 57.44922,-38.07421 z"
         id="path4417"
         inkscape:connector-curvature="0" />
    </clipPath>
    <linearGradient
       inkscape:collect="always"
       xlink:href="#linearGradient3806-5"
       id="linearGradient4244"
       x1="256"
       y1="0"
       x2="256"
       y2="476"
       gradientUnits="userSpaceOnUse"
       gradientTransform="matrix(1,0,0,1.0756302,0,-494)" />
    <linearGradient
       id="linearGradient3806-5">
      <stop
         style="stop-color:#8a75a1;stop-opacity:1"
         offset="0"
         id="stop3808-0" />
      <stop
         style="stop-color:#433e6a;stop-opacity:1"
         offset="1"
         id="stop3810-4" />
    </linearGradient>
    <linearGradient
       id="linearGradient4296">
      <stop
         style="stop-color:#c6b386;stop-opacity:0"
         offset="0"
         id="stop3901" />
      <stop
         style="stop-color:#c6b386;stop-opacity:1"
         offset="1"
         id="stop3905" />
    </linearGradient>
    <clipPath
       clipPathUnits="userSpaceOnUse"
       id="clipPath4415-7">
      <path
         style="color:#000000;display:inline;overflow:visible;visibility:visible;fill:#ff00ff;fill-opacity:1;fill-rule:nonzero;stroke:none;stroke-width:1;marker:none;enable-background:accumulate"
         d="M 0,18 V 494 H 512 V 18 Z m 192.29883,127.3125 c 26.08227,0 47.44726,21.10278 47.44726,47.04297 0,25.93989 -21.36494,47.03711 -47.44726,47.03711 h -40.44727 c -17.50251,0 -31.88867,-14.26177 -31.88867,-31.73828 0,-16.29836 12.41905,-30.08903 28.51953,-31.94336 6.86927,-17.67669 23.70603,-30.39844 43.81641,-30.39844 z M 322.7832,274.75391 c 34.43266,0 62.15351,28.40591 63.7461,63.55273 12.90189,5.48067 21.99023,18.22708 21.99023,33.32617 0,19.90085 -15.68548,36.42578 -35.16601,36.42578 H 322.7832 268.53125 c -25.47299,0 -46.01758,-21.59855 -46.01758,-47.75976 0,-25.03825 18.87528,-45.72654 42.82031,-47.47071 10.2942,-22.34104 31.95238,-38.07421 57.44922,-38.07421 z"
         id="path4417-5"
         inkscape:connector-curvature="0"
         sodipodi:nodetypes="cccccssssscsscsscsscs" />
    </clipPath>
    <linearGradient
       id="linearGradient3899-5">
      <stop
         id="stop4292-5"
         offset="0"
         style="stop-color:#fbf7e3;stop-opacity:1" />
      <stop
         id="stop4294-7"
         offset="1"
         style="stop-color:#dcd1b6;stop-opacity:1" />
    </linearGradient>
    <linearGradient
       gradientTransform="translate(-2.3511859e-9,18)"
       inkscape:collect="always"
       xlink:href="#linearGradient4325"
       id="linearGradient4436"
       x1="375.97604"
       y1="325.92221"
       x2="222.33502"
       y2="201.14166"
       gradientUnits="userSpaceOnUse" />
    <linearGradient
       inkscape:collect="always"
       id="linearGradient4325">
      <stop
         style="stop-color:#fbf6de;stop-opacity:1"
         offset="0"
         id="stop4327" />
      <stop
         style="stop-color:#fbf6de;stop-opacity:0"
         offset="1"
         id="stop4329" />
    </linearGradient>
    <filter
       inkscape:collect="always"
       style="color-interpolation-filters:sRGB"
       id="filter4333"
       x="-0.012002144"
       width="1.0240043"
       y="-0.011997857"
       height="1.0239958">
      <feGaussianBlur
         inkscape:collect="always"
         stdDeviation="1.1746847"
         id="feGaussianBlur4335" />
    </filter>
    <linearGradient
       inkscape:collect="always"
       xlink:href="#linearGradient3899-5"
       id="linearGradient4257"
       gradientUnits="userSpaceOnUse"
       x1="129.48434"
       y1="307.10605"
       x2="382.50259"
       y2="169.87701"
       gradientTransform="matrix(-0.21542753,0.80398647,0.80398647,0.21542753,120.48249,0.56591)" />
    <linearGradient
       inkscape:collect="always"
       xlink:href="#linearGradient4296"
       id="linearGradient4288"
       x1="179.75591"
       y1="218.74878"
       x2="219.0775"
       y2="218.74878"
       gradientUnits="userSpaceOnUse"
       gradientTransform="translate(-549.35732,33.300026)" />
    <linearGradient
       inkscape:collect="always"
       xlink:href="#linearGradient4296"
       id="linearGradient4304"
       gradientUnits="userSpaceOnUse"
       gradientTransform="matrix(0.67857145,0,0,0.67857145,-392.61516,198.90037)"
       x1="179.75591"
       y1="218.74878"
       x2="219.0775"
       y2="218.74878" />
    <linearGradient
       inkscape:collect="always"
       xlink:href="#linearGradient4296"
       id="linearGradient4312"
       gradientUnits="userSpaceOnUse"
       gradientTransform="matrix(1.0214286,0,0,1.0214286,-497.38718,100.56248)"
       x1="179.75591"
       y1="218.74878"
       x2="219.0775"
       y2="218.74878" />
    <linearGradient
       inkscape:collect="always"
       xlink:href="#linearGradient4296"
       id="linearGradient4320"
       gradientUnits="userSpaceOnUse"
       gradientTransform="matrix(0.65952386,0,0,0.65952386,-462.11223,73.867453)"
       x1="179.75591"
       y1="218.74878"
       x2="219.0775"
       y2="218.74878" />
    <linearGradient
       inkscape:collect="always"
       xlink:href="#linearGradient4296"
       id="linearGradient4333"
       gradientUnits="userSpaceOnUse"
       gradientTransform="matrix(0.44619054,0,0,0.44619054,-316.15043,239.29258)"
       x1="179.75591"
       y1="218.74878"
       x2="219.0775"
       y2="218.74878" />
    <clipPath
       clipPathUnits="userSpaceOnUse"
       id="clipPath4415-9">
      <path
         style="color:#000000;display:inline;overflow:visible;visibility:visible;fill:#ff00ff;fill-opacity:1;fill-rule:nonzero;stroke:none;stroke-width:1;marker:none;enable-background:accumulate"
         d="M 0,18 V 494 H 512 V 18 Z m 158.29883,227.3125 c 26.08227,0 47.44726,21.10278 47.44726,47.04297 0,25.93989 -21.36494,47.03711 -47.44726,47.03711 h -40.44727 c -17.50251,0 -31.888669,-14.26177 -31.888669,-31.73828 0,-16.29836 12.419046,-30.08903 28.519529,-31.94336 6.86927,-17.67669 23.70603,-30.39844 43.81641,-30.39844 z m 164.48437,29.44141 c 34.43266,0 62.15351,28.40591 63.7461,63.55273 12.90189,5.48067 21.99023,18.22708 21.99023,33.32617 0,19.90085 -15.68548,36.42578 -35.16601,36.42578 H 322.7832 268.53125 c -25.47299,0 -46.01758,-21.59855 -46.01758,-47.75976 0,-25.03825 18.87528,-45.72654 42.82031,-47.47071 10.2942,-22.34104 31.95238,-38.07421 57.44922,-38.07421 z"
         id="path4417-5-9"
         inkscape:connector-curvature="0" />
    </clipPath>
    <filter
       inkscape:collect="always"
       style="color-interpolation-filters:sRGB"
       id="filter4443"
       x="-0.082416467"
       width="1.1648329"
       y="-0.1149993"
       height="1.2299986">
      <feGaussianBlur
         inkscape:collect="always"
         stdDeviation="6.3874773"
         id="feGaussianBlur4445" />
    </filter>
    <linearGradient
       inkscape:collect="always"
       xlink:href="#linearGradient4433"
       id="linearGradient4242"
       x1="316.99469"
       y1="240.5325"
       x2="316.99469"
       y2="404.64883"
       gradientUnits="userSpaceOnUse"
       gradientTransform="matrix(0.73710392,0,0,0.73534105,90.154143,111.09401)" />
    <linearGradient
       inkscape:collect="always"
       id="linearGradient4433">
      <stop
         style="stop-color:#ffffff;stop-opacity:1;"
         offset="0"
         id="stop4435" />
      <stop
         id="stop4437"
         offset="0.55431652"
         style="stop-color:#ffffff;stop-opacity:0.877" />
      <stop
         style="stop-color:#ffffff;stop-opacity:0.523"
         offset="1"
         id="stop4439" />
    </linearGradient>
    <linearGradient
       inkscape:collect="always"
       xlink:href="#linearGradient4328"
       id="linearGradient4334"
       x1="283.32562"
       y1="283.32562"
       x2="381.70837"
       y2="184.94287"
       gradientUnits="userSpaceOnUse"
       spreadMethod="reflect" />
    <linearGradient
       inkscape:collect="always"
       id="linearGradient4328">
      <stop
         style="stop-color:#000000;stop-opacity:1;"
         offset="0"
         id="stop4330" />
      <stop
         style="stop-color:#000000;stop-opacity:0;"
         offset="1"
         id="stop4332" />
    </linearGradient>
    <filter
       inkscape:collect="always"
       style="color-interpolation-filters:sRGB"
       id="filter4329"
       x="-0.096017152"
       width="1.1920342"
       y="-0.095982857"
       height="1.1919657">
      <feGaussianBlur
         inkscape:collect="always"
         stdDeviation="9.3974778"
         id="feGaussianBlur4331" />
    </filter>
    <linearGradient
       inkscape:collect="always"
       xlink:href="#linearGradient4369"
       id="linearGradient4375"
       x1="356.23923"
       y1="355.47205"
       x2="408.52008"
       y2="303.06586"
       gradientUnits="userSpaceOnUse"
       spreadMethod="reflect" />
  </defs>
  <sodipodi:namedview
     id="base"
     pagecolor="#c6c6c6"
     bordercolor="#666666"
     borderopacity="1.0"
     inkscape:pageopacity="0"
     inkscape:pageshadow="2"
     inkscape:zoom="1.66893"
     inkscape:cx="208.07493"
     inkscape:cy="115.45243"
     inkscape:document-units="px"
     inkscape:current-layer="layer4"
     showgrid="false"
     inkscape:window-width="1920"
     inkscape:window-height="1029"
     inkscape:window-x="0"
     inkscape:window-y="24"
     inkscape:window-maximized="1"
     inkscape:snap-page="true"
     inkscape:showpageshadow="false"
     showborder="true"
     inkscape:snap-bbox="true"
     inkscape:bbox-paths="true"
     inkscape:bbox-nodes="true"
     inkscape:snap-bbox-edge-midpoints="true"
     inkscape:snap-bbox-midpoints="true"
     inkscape:object-paths="true"
     inkscape:object-nodes="true"
     inkscape:snap-intersection-paths="true"
     inkscape:snap-smooth-nodes="true"
     inkscape:snap-midpoints="true"
     inkscape:snap-object-midpoints="true"
     inkscape:snap-center="true"
     showguides="false"
     inkscape:guide-bbox="true"
     inkscape:snap-grids="true"
     fit-margin-top="18"
     fit-margin-left="0"
     fit-margin-right="0.4"
     fit-margin-bottom="18"
     inkscape:snap-global="true">
    <inkscape:grid
       type="xygrid"
       id="grid811"
       originx="0px"
       originy="16.000003px"
       visible="true"
       enabled="true" />
    <sodipodi:guide
       orientation="1,0"
       position="104,176"
       id="guide819" />
    <sodipodi:guide
       orientation="1,0"
       position="120,160"
       id="guide821" />
    <sodipodi:guide
       orientation="1,0"
       position="392,144"
       id="guide823" />
    <sodipodi:guide
       orientation="1,0"
       position="408,144"
       id="guide825" />
    <sodipodi:guide
       orientation="0,1"
       position="328,408"
       id="guide827" />
    <sodipodi:guide
       orientation="0,1"
       position="336,392"
       id="guide829" />
    <sodipodi:guide
       orientation="0,1"
       position="176,120"
       id="guide831" />
    <sodipodi:guide
       orientation="0,1"
       position="216,104"
       id="guide833" />
    <inkscape:grid
       type="axonomgrid"
       id="grid835"
       units="px"
       empspacing="60"
       gridanglex="42.9"
       gridanglez="42.9"
       spacingy="3.522px"
       enabled="false"
       originx="0px"
       originy="17px" />
    <sodipodi:guide
       orientation="0,1"
       position="344,376"
       id="guide4126" />
    <sodipodi:guide
       orientation="1,0"
       position="136,96.000003"
       id="guide4130" />
    <sodipodi:guide
       orientation="1,0"
       position="376,136"
       id="guide4134" />
    <sodipodi:guide
       orientation="-0.70710678,0.70710678"
       position="256,256"
       id="guide4136" />
    <sodipodi:guide
       orientation="1,0"
       position="256,232"
       id="guide4138" />
    <sodipodi:guide
       orientation="0,1"
       position="288,256"
       id="guide4140" />
    <sodipodi:guide
       orientation="0.70710678,0.70710678"
       position="256,256"
       id="guide4142" />
  </sodipodi:namedview>
  <metadata
     id="metadata3341">
    <rdf:RDF>
      <cc:Work
         rdf:about="">
        <dc:format>image/svg+xml</dc:format>
        <dc:type
           rdf:resource="http://purl.org/dc/dcmitype/StillImage" />
        <dc:title></dc:title>
      </cc:Work>
    </rdf:RDF>
  </metadata>
  <g
     inkscape:groupmode="layer"
     id="layer1"
     inkscape:label="Background"
     style="display:inline"
     transform="translate(0,18)">
    <rect
       style="color:#000000;display:inline;overflow:visible;visibility:visible;fill:url(#linearGradient4244);fill-opacity:1;fill-rule:nonzero;stroke:none;stroke-width:10;marker:none;enable-background:accumulate"
       id="rect4235"
       width="512"
       height="512"
       x="0"
       y="-494"
       transform="scale(1,-1)" />
    <path
       style="color:#000000;display:inline;overflow:visible;visibility:visible;opacity:0.02999998;fill:#ffffff;fill-opacity:1;fill-rule:nonzero;stroke:none;stroke-width:2;stroke-linecap:butt;stroke-linejoin:miter;stroke-miterlimit:4;stroke-dasharray:none;stroke-dashoffset:1;stroke-opacity:1;marker:none;enable-background:accumulate"
       d="M 512,494 0,-18 v 512 z"
       id="path4305"
       inkscape:connector-curvature="0" />
  </g>
  <g
     inkscape:groupmode="layer"
     id="layer4"
     inkscape:label="Pictogram">
    <path
       id="path4413"
       d="m 289.92773,146.56641 c 21.42992,26.23584 28.95976,61.16563 20.24219,93.90039 -15.08184,56.287 -72.93745,89.69063 -129.22461,74.60937 -14.379,-3.89983 -27.7691,-10.80057 -39.28906,-20.24805 11.60278,40.3459 43.46868,71.68057 84.00391,82.60352 63.93985,17.13233 129.66193,-20.81227 146.79492,-84.75195 16.86012,-63.05033 -19.82522,-128.0011 -82.52735,-146.11328 z"
       style="color:#000000;display:inline;overflow:visible;visibility:visible;opacity:0.4;fill:url(#linearGradient4334);fill-opacity:1;fill-rule:nonzero;stroke:none;stroke-width:6;marker:none;filter:url(#filter4329);enable-background:accumulate"
       inkscape:connector-curvature="0"
       sodipodi:nodetypes="ccccccc" />
    <path
       inkscape:connector-curvature="0"
       id="path812"
       d="m -208.3181,605.62001 c -7.84212,0 -14.55396,5.02921 -17.31771,12.18748 -0.0612,-6.7e-4 -0.12078,0 -0.18229,0 -7.08766,0 -12.83333,6.0022 -12.83333,13.40621 0,7.40408 5.74567,13.40631 12.83333,13.40631 h 17.5 16.33334 c 5.15466,0 9.33333,-4.36531 9.33333,-9.75006 0,-4.54336 -2.97407,-8.36314 -7,-9.44525 0.001,-0.10288 0,-0.20153 0,-0.30467 0,-10.7696 -8.35735,-19.50002 -18.66667,-19.50002 z"
       style="color:#000000;display:none;overflow:visible;visibility:visible;fill:#ffffff;stroke:#cccccc;stroke-width:4;stroke-miterlimit:4;stroke-dasharray:none;marker:none;enable-background:accumulate" />
    <path
       style="color:#000000;display:none;overflow:visible;visibility:visible;fill:none;stroke:#cccccc;stroke-width:3.99999976;stroke-miterlimit:4;stroke-dasharray:none;marker:none;enable-background:accumulate"
       d="m 288.86631,828.08446 c -6.34922,0 -11.78333,4.0718 -14.02095,9.86737 -0.0496,-5.5e-4 -0.0978,0 -0.14759,0 -5.73839,0 -10.39026,4.85956 -10.39026,10.85408 0,5.99457 4.65187,10.85416 10.39026,10.85416 h 14.16854 13.22398 c 4.17337,0 7.55655,-3.53429 7.55655,-7.89395 0,-3.67845 -2.4079,-6.77106 -5.66742,-7.64717 10e-4,-0.0833 0,-0.16316 0,-0.24667 0,-8.7194 -6.76637,-15.78782 -15.11311,-15.78782 z"
       id="path4340"
       inkscape:connector-curvature="0" />
    <path
       style="color:#000000;display:inline;overflow:visible;visibility:visible;opacity:0.2;fill:url(#linearGradient4436);fill-opacity:1;fill-rule:nonzero;stroke:none;stroke-width:6;marker:none;enable-background:accumulate"
       d="M 289.41992,115.64648 A 26.929903,26.929903 0 0 0 263.57422,137.23633 119.85812,119.85812 0 0 1 375.89844,256.7168 119.85812,119.85812 0 0 1 256.04102,376.57422 119.85812,119.85812 0 0 1 136.45508,264.43359 26.929903,26.929903 0 0 0 115.77734,298.26953 c 14.19859,49.37221 53.27308,87.79545 102.87696,101.16211 a 26.929903,26.929903 0 0 0 0.0371,0.01 c 77.99645,20.89872 158.87391,-25.79673 179.77343,-103.79297 a 26.929903,26.929903 0 0 0 0.004,-0.0117 C 419.03925,218.71099 373.90129,138.79537 297.40039,116.69726 a 26.929903,26.929903 0 0 0 -7.98047,-1.05078 z"
       id="path4428"
       inkscape:connector-curvature="0" />
    <path
       id="path4393"
       d="m 289.92773,146.56641 c 21.42992,26.23584 28.95976,61.16563 20.24219,93.90039 -15.08184,56.287 -72.93745,89.69063 -129.22461,74.60937 -14.379,-3.89983 -27.7691,-10.80057 -39.28906,-20.24805 11.60278,40.3459 43.46868,71.68057 84.00391,82.60352 63.93985,17.13233 129.66193,-20.81227 146.79492,-84.75195 16.86012,-63.05033 -19.82522,-128.0011 -82.52735,-146.11328 z"
       style="color:#000000;display:inline;overflow:visible;visibility:visible;opacity:0.1;fill:#000000;fill-opacity:1;fill-rule:nonzero;stroke:none;stroke-width:6;marker:none;filter:url(#filter4333);enable-background:accumulate"
       inkscape:connector-curvature="0"
       sodipodi:nodetypes="ccccccc" />
    <path
       style="color:#000000;display:inline;overflow:visible;visibility:visible;fill:url(#linearGradient4257);fill-opacity:1;fill-rule:nonzero;stroke:none;stroke-width:6;marker:none;enable-background:accumulate"
       d="m 289.92773,142.56641 c 21.42992,26.23584 28.95976,61.16563 20.24219,93.90039 -15.08184,56.287 -72.93745,89.69063 -129.22461,74.60937 -14.379,-3.89983 -27.7691,-10.80057 -39.28906,-20.24805 11.60278,40.3459 43.46868,71.68057 84.00391,82.60352 63.93985,17.13233 129.66193,-20.81227 146.79492,-84.75195 16.86012,-63.05033 -19.82522,-128.0011 -82.52735,-146.11328 z"
       id="path4255"
       inkscape:connector-curvature="0"
       sodipodi:nodetypes="ccccccc" />
    <circle
       style="color:#000000;display:inline;overflow:visible;visibility:visible;opacity:0.25;fill:url(#linearGradient4288);fill-opacity:1;fill-rule:nonzero;stroke:none;stroke-width:10;marker:none;enable-background:accumulate"
       id="path4280"
       cx="-349.94061"
       cy="252.04877"
       r="19.660801"
       transform="rotate(-90)" />
    <circle
       style="color:#000000;display:inline;overflow:visible;visibility:visible;opacity:0.2;fill:url(#linearGradient4304);fill-opacity:1;fill-rule:nonzero;stroke:none;stroke-width:10;marker:none;enable-background:accumulate"
       id="circle4302"
       cx="-257.29666"
       cy="347.33698"
       r="13.341258"
       transform="rotate(-90)" />
    <circle
       style="color:#000000;display:inline;overflow:visible;visibility:visible;opacity:0.2;fill:url(#linearGradient4312);fill-opacity:1;fill-rule:nonzero;stroke:none;stroke-width:10;marker:none;enable-background:accumulate"
       id="circle4310"
       cx="-293.69727"
       cy="323.99875"
       r="20.082106"
       transform="rotate(-90)" />
    <circle
       style="color:#000000;display:inline;overflow:visible;visibility:visible;opacity:0.25;fill:url(#linearGradient4320);fill-opacity:1;fill-rule:nonzero;stroke:none;stroke-width:10;marker:none;enable-background:accumulate"
       id="circle4318"
       cx="-330.59219"
       cy="218.13745"
       r="12.966768"
       transform="rotate(-90)" />
    <circle
       transform="rotate(-90)"
       r="8.7724638"
       cy="336.89621"
       cx="-227.17262"
       id="circle4331"
       style="color:#000000;display:inline;overflow:visible;visibility:visible;opacity:0.2;fill:url(#linearGradient4333);fill-opacity:1;fill-rule:nonzero;stroke:none;stroke-width:10;marker:none;enable-background:accumulate" />
    <path
       inkscape:connector-curvature="0"
       style="color:#000000;display:inline;overflow:visible;visibility:visible;opacity:0.3;fill:#ffffff;fill-opacity:1;fill-rule:nonzero;stroke:none;stroke-width:6;marker:none;enable-background:accumulate"
       d="m 289.92773,142.56641 c 0.70754,0.8662 1.39903,1.74218 2.07618,2.62695 50.73539,15.63764 83.91514,62.15083 84.53711,113 0.23896,-52.31799 -34.03625,-100.43951 -86.61329,-115.62695 z m 23.78321,67.49218 c -0.0618,8.82145 -1.21993,17.69245 -3.54102,26.40821 -15.08184,56.287 -72.93745,89.69063 -129.22461,74.60937 -14.379,-3.89983 -27.7691,-10.80057 -39.28906,-20.24805 0.25528,0.88769 0.53186,1.76569 0.80664,2.64454 11.33768,9.11386 24.43578,15.79382 38.48242,19.60351 56.28716,15.08126 114.14277,-18.32237 129.22461,-74.60937 2.49659,-9.37479 3.65442,-18.92913 3.54102,-28.40821 z"
       id="path4319" />
    <g
       transform="matrix(0.91041962,0,0,0.90824224,36.559503,38.031968)"
       inkscape:groupmode="maskhelper"
       id="g4412"
       clip-path="url(#clipPath4415-9)"
       style="opacity:0.2;stroke-width:1.09971046;filter:url(#filter4443);enable-background:new">
      <path
         inkscape:connector-curvature="0"
         id="path4332"
         d="m 322.7832,278.75391 c -25.49684,0 -47.15502,15.73316 -57.44922,38.07421 -23.94503,1.74417 -42.82031,22.43246 -42.82031,47.47071 0,26.16121 20.54459,47.75976 46.01758,47.75976 h 54.25195 50.57032 c 19.48053,0 35.16601,-16.52493 35.16601,-36.42578 0,-15.09909 -9.08834,-27.8455 -21.99023,-33.32617 -1.59259,-35.14682 -29.31344,-63.55273 -63.7461,-63.55273 z"
         style="color:#000000;font-style:normal;font-variant:normal;font-weight:normal;font-stretch:normal;line-height:normal;font-family:sans-serif;-inkscape-font-specification:sans-serif;text-indent:0;text-align:start;text-decoration:none;text-decoration-line:none;letter-spacing:normal;word-spacing:normal;text-transform:none;direction:ltr;block-progression:tb;writing-mode:lr-tb;baseline-shift:baseline;text-anchor:start;clip-rule:nonzero;display:inline;overflow:visible;visibility:visible;color-interpolation:sRGB;color-interpolation-filters:linearRGB;fill:url(#linearGradient4375);fill-opacity:1;stroke:none;stroke-width:4.39884186;marker:none;color-rendering:auto;image-rendering:auto;shape-rendering:auto;text-rendering:auto;enable-background:accumulate"
         sodipodi:nodetypes="scsscsscs" />
    </g>
    <path
       style="color:#000000;font-style:normal;font-variant:normal;font-weight:normal;font-stretch:normal;line-height:normal;font-family:sans-serif;-inkscape-font-specification:sans-serif;text-indent:0;text-align:start;text-decoration:none;text-decoration-line:none;letter-spacing:normal;word-spacing:normal;text-transform:none;direction:ltr;block-progression:tb;writing-mode:lr-tb;baseline-shift:baseline;text-anchor:start;clip-rule:nonzero;display:inline;overflow:visible;visibility:visible;color-interpolation:sRGB;color-interpolation-filters:linearRGB;fill:url(#linearGradient4242);fill-opacity:1;stroke:none;stroke-width:4;marker:none;color-rendering:auto;image-rendering:auto;shape-rendering:auto;text-rendering:auto;enable-background:accumulate"
       d="m 330.42718,287.57585 c -23.21282,0 -42.93059,14.28861 -52.30263,34.57971 -21.80003,1.58412 -38.98441,20.37378 -38.98441,43.11458 0,23.76072 18.7039,43.37877 41.89501,43.37877 h 49.39203 46.04042 c 17.73546,0 32.01661,-15.0091 32.01661,-33.0839 0,-13.71363 -8.27528,-25.29046 -20.02141,-30.26824 -1.44992,-31.92184 -26.68745,-57.72092 -58.03562,-57.72092 z"
       id="path4233"
       inkscape:connector-curvature="0" />
    <path
       style="color:#000000;display:inline;overflow:visible;visibility:visible;fill:#eee7cd;fill-opacity:1;fill-rule:nonzero;stroke:none;stroke-width:3;marker:none;enable-background:accumulate"
       d="m 181.56001,87.289207 c -0.004,0.008 0.003,0.0204 0,0.0204 h -0.0212 c -4.42382,6.34154 -8.02839,12.774873 -10.5404,17.630833 -5.44114,0.80477 -12.46227,2.09443 -19.32407,4.10612 -0.003,0.01 -0.006,0.0197 0,0.0204 -0.003,0.01 0.0212,0 0.0212,0 0.009,0.008 0,0.0198 0,0.0204 4.50715,6.20967 9.36979,11.68321 13.12259,15.64138 -0.79973,5.4138 -1.58423,12.38877 -1.65092,19.45097 0.009,0.008 0.0208,8e-5 0.0212,0 0.009,0.008 0.0205,2.9e-4 0.0212,0 7.14291,-2.47199 13.68401,-5.47163 18.54095,-7.89469 4.93651,2.49272 11.50666,5.5168 18.37161,7.85231 0.005,-0.008 0.0234,0.008 0.0212,0 0.005,-0.008 2e-4,-0.0204 0,-0.0204 0.005,-0.008 2e-4,-0.0197 0,-0.0204 -0.10935,-7.45124 -0.88153,-14.48617 -1.6509,-19.83198 3.84551,-3.98926 8.71923,-9.4207 12.99559,-15.32383 -10e-4,-0.008 -0.0137,0 -0.0212,0 -0.008,5e-4 -0.0203,-0.0204 -0.0211,-0.0204 -7.13532,-2.08502 -14.07836,-3.43559 -19.40874,-4.27529 -2.55856,-4.938913 -6.17971,-11.355243 -10.45572,-17.355673 -0.004,-2.3e-4 -0.0179,-0.008 -0.0212,0 z"
       id="path4446"
       inkscape:connector-curvature="0" />
    <path
       inkscape:connector-curvature="0"
       id="path4448"
       d="m 122.71583,150.7509 c -0.003,0.005 0.002,0.0129 0,0.0129 h -0.0134 c -2.78702,3.9952 -5.05792,8.04823 -6.6405,11.10751 -3.42794,0.507 -7.85129,1.31949 -12.17425,2.58687 -0.002,0.006 -0.004,0.0124 0,0.0129 -0.002,0.006 0.0134,0 0.0134,0 0.005,0.005 0,0.0125 0,0.0129 2.83953,3.91212 5.90301,7.36047 8.26729,9.85414 -0.50383,3.41072 -0.99807,7.80498 -1.04008,12.2542 0.005,0.005 0.0131,5e-5 0.0133,0 0.005,0.005 0.0129,1.9e-4 0.0134,0 4.50007,-1.55736 8.62099,-3.44715 11.68088,-4.97369 3.11002,1.57042 7.24925,3.47561 11.5742,4.94699 0.003,-0.005 0.0147,0.005 0.0133,0 0.003,-0.005 1.3e-4,-0.0129 0,-0.0129 0.003,-0.005 1.3e-4,-0.0124 0,-0.0129 -0.0689,-4.69431 -0.55536,-9.12635 -1.04007,-12.49423 2.42269,-2.51326 5.49316,-5.9351 8.18728,-9.65409 -6.8e-4,-0.005 -0.009,0 -0.0134,0 -0.005,3.1e-4 -0.0128,-0.0129 -0.0133,-0.0129 -4.49529,-1.31358 -8.86944,-2.16444 -12.2276,-2.69346 -1.61191,-3.11153 -3.89324,-7.15385 -6.58715,-10.93415 -0.003,-1.4e-4 -0.0113,-0.005 -0.0134,0 z"
       style="color:#000000;display:inline;overflow:visible;visibility:visible;fill:#dfd3b2;fill-opacity:1;fill-rule:nonzero;stroke:none;stroke-width:3;marker:none;enable-background:accumulate" />
  </g>
</svg>
